     864
 i =        2, E =        -2.4291469902
 Ar         1.3172500000        1.3172500000        1.3172500000
 Ar         3.9517500000        3.9517500000        1.3172500000
 Ar         3.9517500000        1.3172500000        3.9517500000
 Ar         1.3172500000        3.9517500000        3.9517500000
 Ar         6.5862500000        1.3172500000        1.3172500000
 Ar         9.2207500000        3.9517500000        1.3172500000
 Ar         9.2207500000        1.3172500000        3.9517500000
 Ar         6.5862500000        3.9517500000        3.9517500000
 Ar        11.8552500000        1.3172500000        1.3172500000
 Ar        14.4897500000        3.9517500000        1.3172500000
 Ar        14.4897500000        1.3172500000        3.9517500000
 Ar        11.8552500000        3.9517500000        3.9517500000
 Ar        17.1242500000        1.3172500000        1.3172500000
 Ar        19.7587500000        3.9517500000        1.3172500000
 Ar        19.7587500000        1.3172500000        3.9517500000
 Ar        17.1242500000        3.9517500000        3.9517500000
 Ar        22.3932500000        1.3172500000        1.3172500000
 Ar        25.0277500000        3.9517500000        1.3172500000
 Ar        25.0277500000        1.3172500000        3.9517500000
 Ar        22.3932500000        3.9517500000        3.9517500000
 Ar        27.6622500000        1.3172500000        1.3172500000
 Ar        30.2967500000        3.9517500000        1.3172500000
 Ar        30.2967500000        1.3172500000        3.9517500000
 Ar        27.6622500000        3.9517500000        3.9517500000
 Ar         1.3172500000        6.5862500000        1.3172500000
 Ar         3.9517500000        9.2207500000        1.3172500000
 Ar         3.9517500000        6.5862500000        3.9517500000
 Ar         1.3172500000        9.2207500000        3.9517500000
 Ar         6.5862500000        6.5862500000        1.3172500000
 Ar         9.2207500000        9.2207500000        1.3172500000
 Ar         9.2207500000        6.5862500000        3.9517500000
 Ar         6.5862500000        9.2207500000        3.9517500000
 Ar        11.8552500000        6.5862500000        1.3172500000
 Ar        14.4897500000        9.2207500000        1.3172500000
 Ar        14.4897500000        6.5862500000        3.9517500000
 Ar        11.8552500000        9.2207500000        3.9517500000
 Ar        17.1242500000        6.5862500000        1.3172500000
 Ar        19.7587500000        9.2207500000        1.3172500000
 Ar        19.7587500000        6.5862500000        3.9517500000
 Ar        17.1242500000        9.2207500000        3.9517500000
 Ar        22.3932500000        6.5862500000        1.3172500000
 Ar        25.0277500000        9.2207500000        1.3172500000
 Ar        25.0277500000        6.5862500000        3.9517500000
 Ar        22.3932500000        9.2207500000        3.9517500000
 Ar        27.6622500000        6.5862500000        1.3172500000
 Ar        30.2967500000        9.2207500000        1.3172500000
 Ar        30.2967500000        6.5862500000        3.9517500000
 Ar        27.6622500000        9.2207500000        3.9517500000
 Ar         1.3172500000       11.8552500000        1.3172500000
 Ar         3.9517500000       14.4897500000        1.3172500000
 Ar         3.9517500000       11.8552500000        3.9517500000
 Ar         1.3172500000       14.4897500000        3.9517500000
 Ar         6.5862500000       11.8552500000        1.3172500000
 Ar         9.2207500000       14.4897500000        1.3172500000
 Ar         9.2207500000       11.8552500000        3.9517500000
 Ar         6.5862500000       14.4897500000        3.9517500000
 Ar        11.8552500000       11.8552500000        1.3172500000
 Ar        14.4897500000       14.4897500000        1.3172500000
 Ar        14.4897500000       11.8552500000        3.9517500000
 Ar        11.8552500000       14.4897500000        3.9517500000
 Ar        17.1242500000       11.8552500000        1.3172500000
 Ar        19.7587500000       14.4897500000        1.3172500000
 Ar        19.7587500000       11.8552500000        3.9517500000
 Ar        17.1242500000       14.4897500000        3.9517500000
 Ar        22.3932500000       11.8552500000        1.3172500000
 Ar        25.0277500000       14.4897500000        1.3172500000
 Ar        25.0277500000       11.8552500000        3.9517500000
 Ar        22.3932500000       14.4897500000        3.9517500000
 Ar        27.6622500000       11.8552500000        1.3172500000
 Ar        30.2967500000       14.4897500000        1.3172500000
 Ar        30.2967500000       11.8552500000        3.9517500000
 Ar        27.6622500000       14.4897500000        3.9517500000
 Ar         1.3172500000       17.1242500000        1.3172500000
 Ar         3.9517500000       19.7587500000        1.3172500000
 Ar         3.9517500000       17.1242500000        3.9517500000
 Ar         1.3172500000       19.7587500000        3.9517500000
 Ar         6.5862500000       17.1242500000        1.3172500000
 Ar         9.2207500000       19.7587500000        1.3172500000
 Ar         9.2207500000       17.1242500000        3.9517500000
 Ar         6.5862500000       19.7587500000        3.9517500000
 Ar        11.8552500000       17.1242500000        1.3172500000
 Ar        14.4897500000       19.7587500000        1.3172500000
 Ar        14.4897500000       17.1242500000        3.9517500000
 Ar        11.8552500000       19.7587500000        3.9517500000
 Ar        17.1242500000       17.1242500000        1.3172500000
 Ar        19.7587500000       19.7587500000        1.3172500000
 Ar        19.7587500000       17.1242500000        3.9517500000
 Ar        17.1242500000       19.7587500000        3.9517500000
 Ar        22.3932500000       17.1242500000        1.3172500000
 Ar        25.0277500000       19.7587500000        1.3172500000
 Ar        25.0277500000       17.1242500000        3.9517500000
 Ar        22.3932500000       19.7587500000        3.9517500000
 Ar        27.6622500000       17.1242500000        1.3172500000
 Ar        30.2967500000       19.7587500000        1.3172500000
 Ar        30.2967500000       17.1242500000        3.9517500000
 Ar        27.6622500000       19.7587500000        3.9517500000
 Ar         1.3172500000       22.3932500000        1.3172500000
 Ar         3.9517500000       25.0277500000        1.3172500000
 Ar         3.9517500000       22.3932500000        3.9517500000
 Ar         1.3172500000       25.0277500000        3.9517500000
 Ar         6.5862500000       22.3932500000        1.3172500000
 Ar         9.2207500000       25.0277500000        1.3172500000
 Ar         9.2207500000       22.3932500000        3.9517500000
 Ar         6.5862500000       25.0277500000        3.9517500000
 Ar        11.8552500000       22.3932500000        1.3172500000
 Ar        14.4897500000       25.0277500000        1.3172500000
 Ar        14.4897500000       22.3932500000        3.9517500000
 Ar        11.8552500000       25.0277500000        3.9517500000
 Ar        17.1242500000       22.3932500000        1.3172500000
 Ar        19.7587500000       25.0277500000        1.3172500000
 Ar        19.7587500000       22.3932500000        3.9517500000
 Ar        17.1242500000       25.0277500000        3.9517500000
 Ar        22.3932500000       22.3932500000        1.3172500000
 Ar        25.0277500000       25.0277500000        1.3172500000
 Ar        25.0277500000       22.3932500000        3.9517500000
 Ar        22.3932500000       25.0277500000        3.9517500000
 Ar        27.6622500000       22.3932500000        1.3172500000
 Ar        30.2967500000       25.0277500000        1.3172500000
 Ar        30.2967500000       22.3932500000        3.9517500000
 Ar        27.6622500000       25.0277500000        3.9517500000
 Ar         1.3172500000       27.6622500000        1.3172500000
 Ar         3.9517500000       30.2967500000        1.3172500000
 Ar         3.9517500000       27.6622500000        3.9517500000
 Ar         1.3172500000       30.2967500000        3.9517500000
 Ar         6.5862500000       27.6622500000        1.3172500000
 Ar         9.2207500000       30.2967500000        1.3172500000
 Ar         9.2207500000       27.6622500000        3.9517500000
 Ar         6.5862500000       30.2967500000        3.9517500000
 Ar        11.8552500000       27.6622500000        1.3172500000
 Ar        14.4897500000       30.2967500000        1.3172500000
 Ar        14.4897500000       27.6622500000        3.9517500000
 Ar        11.8552500000       30.2967500000        3.9517500000
 Ar        17.1242500000       27.6622500000        1.3172500000
 Ar        19.7587500000       30.2967500000        1.3172500000
 Ar        19.7587500000       27.6622500000        3.9517500000
 Ar        17.1242500000       30.2967500000        3.9517500000
 Ar        22.3932500000       27.6622500000        1.3172500000
 Ar        25.0277500000       30.2967500000        1.3172500000
 Ar        25.0277500000       27.6622500000        3.9517500000
 Ar        22.3932500000       30.2967500000        3.9517500000
 Ar        27.6622500000       27.6622500000        1.3172500000
 Ar        30.2967500000       30.2967500000        1.3172500000
 Ar        30.2967500000       27.6622500000        3.9517500000
 Ar        27.6622500000       30.2967500000        3.9517500000
 Ar         1.3172500000        1.3172500000        6.5862500000
 Ar         3.9517500000        3.9517500000        6.5862500000
 Ar         3.9517500000        1.3172500000        9.2207500000
 Ar         1.3172500000        3.9517500000        9.2207500000
 Ar         6.5862500000        1.3172500000        6.5862500000
 Ar         9.2207500000        3.9517500000        6.5862500000
 Ar         9.2207500000        1.3172500000        9.2207500000
 Ar         6.5862500000        3.9517500000        9.2207500000
 Ar        11.8552500000        1.3172500000        6.5862500000
 Ar        14.4897500000        3.9517500000        6.5862500000
 Ar        14.4897500000        1.3172500000        9.2207500000
 Ar        11.8552500000        3.9517500000        9.2207500000
 Ar        17.1242500000        1.3172500000        6.5862500000
 Ar        19.7587500000        3.9517500000        6.5862500000
 Ar        19.7587500000        1.3172500000        9.2207500000
 Ar        17.1242500000        3.9517500000        9.2207500000
 Ar        22.3932500000        1.3172500000        6.5862500000
 Ar        25.0277500000        3.9517500000        6.5862500000
 Ar        25.0277500000        1.3172500000        9.2207500000
 Ar        22.3932500000        3.9517500000        9.2207500000
 Ar        27.6622500000        1.3172500000        6.5862500000
 Ar        30.2967500000        3.9517500000        6.5862500000
 Ar        30.2967500000        1.3172500000        9.2207500000
 Ar        27.6622500000        3.9517500000        9.2207500000
 Ar         1.3172500000        6.5862500000        6.5862500000
 Ar         3.9517500000        9.2207500000        6.5862500000
 Ar         3.9517500000        6.5862500000        9.2207500000
 Ar         1.3172500000        9.2207500000        9.2207500000
 Ar         6.5862500000        6.5862500000        6.5862500000
 Ar         9.2207500000        9.2207500000        6.5862500000
 Ar         9.2207500000        6.5862500000        9.2207500000
 Ar         6.5862500000        9.2207500000        9.2207500000
 Ar        11.8552500000        6.5862500000        6.5862500000
 Ar        14.4897500000        9.2207500000        6.5862500000
 Ar        14.4897500000        6.5862500000        9.2207500000
 Ar        11.8552500000        9.2207500000        9.2207500000
 Ar        17.1242500000        6.5862500000        6.5862500000
 Ar        19.7587500000        9.2207500000        6.5862500000
 Ar        19.7587500000        6.5862500000        9.2207500000
 Ar        17.1242500000        9.2207500000        9.2207500000
 Ar        22.3932500000        6.5862500000        6.5862500000
 Ar        25.0277500000        9.2207500000        6.5862500000
 Ar        25.0277500000        6.5862500000        9.2207500000
 Ar        22.3932500000        9.2207500000        9.2207500000
 Ar        27.6622500000        6.5862500000        6.5862500000
 Ar        30.2967500000        9.2207500000        6.5862500000
 Ar        30.2967500000        6.5862500000        9.2207500000
 Ar        27.6622500000        9.2207500000        9.2207500000
 Ar         1.3172500000       11.8552500000        6.5862500000
 Ar         3.9517500000       14.4897500000        6.5862500000
 Ar         3.9517500000       11.8552500000        9.2207500000
 Ar         1.3172500000       14.4897500000        9.2207500000
 Ar         6.5862500000       11.8552500000        6.5862500000
 Ar         9.2207500000       14.4897500000        6.5862500000
 Ar         9.2207500000       11.8552500000        9.2207500000
 Ar         6.5862500000       14.4897500000        9.2207500000
 Ar        11.8552500000       11.8552500000        6.5862500000
 Ar        14.4897500000       14.4897500000        6.5862500000
 Ar        14.4897500000       11.8552500000        9.2207500000
 Ar        11.8552500000       14.4897500000        9.2207500000
 Ar        17.1242500000       11.8552500000        6.5862500000
 Ar        19.7587500000       14.4897500000        6.5862500000
 Ar        19.7587500000       11.8552500000        9.2207500000
 Ar        17.1242500000       14.4897500000        9.2207500000
 Ar        22.3932500000       11.8552500000        6.5862500000
 Ar        25.0277500000       14.4897500000        6.5862500000
 Ar        25.0277500000       11.8552500000        9.2207500000
 Ar        22.3932500000       14.4897500000        9.2207500000
 Ar        27.6622500000       11.8552500000        6.5862500000
 Ar        30.2967500000       14.4897500000        6.5862500000
 Ar        30.2967500000       11.8552500000        9.2207500000
 Ar        27.6622500000       14.4897500000        9.2207500000
 Ar         1.3172500000       17.1242500000        6.5862500000
 Ar         3.9517500000       19.7587500000        6.5862500000
 Ar         3.9517500000       17.1242500000        9.2207500000
 Ar         1.3172500000       19.7587500000        9.2207500000
 Ar         6.5862500000       17.1242500000        6.5862500000
 Ar         9.2207500000       19.7587500000        6.5862500000
 Ar         9.2207500000       17.1242500000        9.2207500000
 Ar         6.5862500000       19.7587500000        9.2207500000
 Ar        11.8552500000       17.1242500000        6.5862500000
 Ar        14.4897500000       19.7587500000        6.5862500000
 Ar        14.4897500000       17.1242500000        9.2207500000
 Ar        11.8552500000       19.7587500000        9.2207500000
 Ar        17.1242500000       17.1242500000        6.5862500000
 Ar        19.7587500000       19.7587500000        6.5862500000
 Ar        19.7587500000       17.1242500000        9.2207500000
 Ar        17.1242500000       19.7587500000        9.2207500000
 Ar        22.3932500000       17.1242500000        6.5862500000
 Ar        25.0277500000       19.7587500000        6.5862500000
 Ar        25.0277500000       17.1242500000        9.2207500000
 Ar        22.3932500000       19.7587500000        9.2207500000
 Ar        27.6622500000       17.1242500000        6.5862500000
 Ar        30.2967500000       19.7587500000        6.5862500000
 Ar        30.2967500000       17.1242500000        9.2207500000
 Ar        27.6622500000       19.7587500000        9.2207500000
 Ar         1.3172500000       22.3932500000        6.5862500000
 Ar         3.9517500000       25.0277500000        6.5862500000
 Ar         3.9517500000       22.3932500000        9.2207500000
 Ar         1.3172500000       25.0277500000        9.2207500000
 Ar         6.5862500000       22.3932500000        6.5862500000
 Ar         9.2207500000       25.0277500000        6.5862500000
 Ar         9.2207500000       22.3932500000        9.2207500000
 Ar         6.5862500000       25.0277500000        9.2207500000
 Ar        11.8552500000       22.3932500000        6.5862500000
 Ar        14.4897500000       25.0277500000        6.5862500000
 Ar        14.4897500000       22.3932500000        9.2207500000
 Ar        11.8552500000       25.0277500000        9.2207500000
 Ar        17.1242500000       22.3932500000        6.5862500000
 Ar        19.7587500000       25.0277500000        6.5862500000
 Ar        19.7587500000       22.3932500000        9.2207500000
 Ar        17.1242500000       25.0277500000        9.2207500000
 Ar        22.3932500000       22.3932500000        6.5862500000
 Ar        25.0277500000       25.0277500000        6.5862500000
 Ar        25.0277500000       22.3932500000        9.2207500000
 Ar        22.3932500000       25.0277500000        9.2207500000
 Ar        27.6622500000       22.3932500000        6.5862500000
 Ar        30.2967500000       25.0277500000        6.5862500000
 Ar        30.2967500000       22.3932500000        9.2207500000
 Ar        27.6622500000       25.0277500000        9.2207500000
 Ar         1.3172500000       27.6622500000        6.5862500000
 Ar         3.9517500000       30.2967500000        6.5862500000
 Ar         3.9517500000       27.6622500000        9.2207500000
 Ar         1.3172500000       30.2967500000        9.2207500000
 Ar         6.5862500000       27.6622500000        6.5862500000
 Ar         9.2207500000       30.2967500000        6.5862500000
 Ar         9.2207500000       27.6622500000        9.2207500000
 Ar         6.5862500000       30.2967500000        9.2207500000
 Ar        11.8552500000       27.6622500000        6.5862500000
 Ar        14.4897500000       30.2967500000        6.5862500000
 Ar        14.4897500000       27.6622500000        9.2207500000
 Ar        11.8552500000       30.2967500000        9.2207500000
 Ar        17.1242500000       27.6622500000        6.5862500000
 Ar        19.7587500000       30.2967500000        6.5862500000
 Ar        19.7587500000       27.6622500000        9.2207500000
 Ar        17.1242500000       30.2967500000        9.2207500000
 Ar        22.3932500000       27.6622500000        6.5862500000
 Ar        25.0277500000       30.2967500000        6.5862500000
 Ar        25.0277500000       27.6622500000        9.2207500000
 Ar        22.3932500000       30.2967500000        9.2207500000
 Ar        27.6622500000       27.6622500000        6.5862500000
 Ar        30.2967500000       30.2967500000        6.5862500000
 Ar        30.2967500000       27.6622500000        9.2207500000
 Ar        27.6622500000       30.2967500000        9.2207500000
 Ar         1.3172500000        1.3172500000       11.8552500000
 Ar         3.9517500000        3.9517500000       11.8552500000
 Ar         3.9517500000        1.3172500000       14.4897500000
 Ar         1.3172500000        3.9517500000       14.4897500000
 Ar         6.5862500000        1.3172500000       11.8552500000
 Ar         9.2207500000        3.9517500000       11.8552500000
 Ar         9.2207500000        1.3172500000       14.4897500000
 Ar         6.5862500000        3.9517500000       14.4897500000
 Ar        11.8552500000        1.3172500000       11.8552500000
 Ar        14.4897500000        3.9517500000       11.8552500000
 Ar        14.4897500000        1.3172500000       14.4897500000
 Ar        11.8552500000        3.9517500000       14.4897500000
 Ar        17.1242500000        1.3172500000       11.8552500000
 Ar        19.7587500000        3.9517500000       11.8552500000
 Ar        19.7587500000        1.3172500000       14.4897500000
 Ar        17.1242500000        3.9517500000       14.4897500000
 Ar        22.3932500000        1.3172500000       11.8552500000
 Ar        25.0277500000        3.9517500000       11.8552500000
 Ar        25.0277500000        1.3172500000       14.4897500000
 Ar        22.3932500000        3.9517500000       14.4897500000
 Ar        27.6622500000        1.3172500000       11.8552500000
 Ar        30.2967500000        3.9517500000       11.8552500000
 Ar        30.2967500000        1.3172500000       14.4897500000
 Ar        27.6622500000        3.9517500000       14.4897500000
 Ar         1.3172500000        6.5862500000       11.8552500000
 Ar         3.9517500000        9.2207500000       11.8552500000
 Ar         3.9517500000        6.5862500000       14.4897500000
 Ar         1.3172500000        9.2207500000       14.4897500000
 Ar         6.5862500000        6.5862500000       11.8552500000
 Ar         9.2207500000        9.2207500000       11.8552500000
 Ar         9.2207500000        6.5862500000       14.4897500000
 Ar         6.5862500000        9.2207500000       14.4897500000
 Ar        11.8552500000        6.5862500000       11.8552500000
 Ar        14.4897500000        9.2207500000       11.8552500000
 Ar        14.4897500000        6.5862500000       14.4897500000
 Ar        11.8552500000        9.2207500000       14.4897500000
 Ar        17.1242500000        6.5862500000       11.8552500000
 Ar        19.7587500000        9.2207500000       11.8552500000
 Ar        19.7587500000        6.5862500000       14.4897500000
 Ar        17.1242500000        9.2207500000       14.4897500000
 Ar        22.3932500000        6.5862500000       11.8552500000
 Ar        25.0277500000        9.2207500000       11.8552500000
 Ar        25.0277500000        6.5862500000       14.4897500000
 Ar        22.3932500000        9.2207500000       14.4897500000
 Ar        27.6622500000        6.5862500000       11.8552500000
 Ar        30.2967500000        9.2207500000       11.8552500000
 Ar        30.2967500000        6.5862500000       14.4897500000
 Ar        27.6622500000        9.2207500000       14.4897500000
 Ar         1.3172500000       11.8552500000       11.8552500000
 Ar         3.9517500000       14.4897500000       11.8552500000
 Ar         3.9517500000       11.8552500000       14.4897500000
 Ar         1.3172500000       14.4897500000       14.4897500000
 Ar         6.5862500000       11.8552500000       11.8552500000
 Ar         9.2207500000       14.4897500000       11.8552500000
 Ar         9.2207500000       11.8552500000       14.4897500000
 Ar         6.5862500000       14.4897500000       14.4897500000
 Ar        11.8552500000       11.8552500000       11.8552500000
 Ar        14.4897500000       14.4897500000       11.8552500000
 Ar        14.4897500000       11.8552500000       14.4897500000
 Ar        11.8552500000       14.4897500000       14.4897500000
 Ar        17.1242500000       11.8552500000       11.8552500000
 Ar        19.7587500000       14.4897500000       11.8552500000
 Ar        19.7587500000       11.8552500000       14.4897500000
 Ar        17.1242500000       14.4897500000       14.4897500000
 Ar        22.3932500000       11.8552500000       11.8552500000
 Ar        25.0277500000       14.4897500000       11.8552500000
 Ar        25.0277500000       11.8552500000       14.4897500000
 Ar        22.3932500000       14.4897500000       14.4897500000
 Ar        27.6622500000       11.8552500000       11.8552500000
 Ar        30.2967500000       14.4897500000       11.8552500000
 Ar        30.2967500000       11.8552500000       14.4897500000
 Ar        27.6622500000       14.4897500000       14.4897500000
 Ar         1.3172500000       17.1242500000       11.8552500000
 Ar         3.9517500000       19.7587500000       11.8552500000
 Ar         3.9517500000       17.1242500000       14.4897500000
 Ar         1.3172500000       19.7587500000       14.4897500000
 Ar         6.5862500000       17.1242500000       11.8552500000
 Ar         9.2207500000       19.7587500000       11.8552500000
 Ar         9.2207500000       17.1242500000       14.4897500000
 Ar         6.5862500000       19.7587500000       14.4897500000
 Ar        11.8552500000       17.1242500000       11.8552500000
 Ar        14.4897500000       19.7587500000       11.8552500000
 Ar        14.4897500000       17.1242500000       14.4897500000
 Ar        11.8552500000       19.7587500000       14.4897500000
 Ar        17.1242500000       17.1242500000       11.8552500000
 Ar        19.7587500000       19.7587500000       11.8552500000
 Ar        19.7587500000       17.1242500000       14.4897500000
 Ar        17.1242500000       19.7587500000       14.4897500000
 Ar        22.3932500000       17.1242500000       11.8552500000
 Ar        25.0277500000       19.7587500000       11.8552500000
 Ar        25.0277500000       17.1242500000       14.4897500000
 Ar        22.3932500000       19.7587500000       14.4897500000
 Ar        27.6622500000       17.1242500000       11.8552500000
 Ar        30.2967500000       19.7587500000       11.8552500000
 Ar        30.2967500000       17.1242500000       14.4897500000
 Ar        27.6622500000       19.7587500000       14.4897500000
 Ar         1.3172500000       22.3932500000       11.8552500000
 Ar         3.9517500000       25.0277500000       11.8552500000
 Ar         3.9517500000       22.3932500000       14.4897500000
 Ar         1.3172500000       25.0277500000       14.4897500000
 Ar         6.5862500000       22.3932500000       11.8552500000
 Ar         9.2207500000       25.0277500000       11.8552500000
 Ar         9.2207500000       22.3932500000       14.4897500000
 Ar         6.5862500000       25.0277500000       14.4897500000
 Ar        11.8552500000       22.3932500000       11.8552500000
 Ar        14.4897500000       25.0277500000       11.8552500000
 Ar        14.4897500000       22.3932500000       14.4897500000
 Ar        11.8552500000       25.0277500000       14.4897500000
 Ar        17.1242500000       22.3932500000       11.8552500000
 Ar        19.7587500000       25.0277500000       11.8552500000
 Ar        19.7587500000       22.3932500000       14.4897500000
 Ar        17.1242500000       25.0277500000       14.4897500000
 Ar        22.3932500000       22.3932500000       11.8552500000
 Ar        25.0277500000       25.0277500000       11.8552500000
 Ar        25.0277500000       22.3932500000       14.4897500000
 Ar        22.3932500000       25.0277500000       14.4897500000
 Ar        27.6622500000       22.3932500000       11.8552500000
 Ar        30.2967500000       25.0277500000       11.8552500000
 Ar        30.2967500000       22.3932500000       14.4897500000
 Ar        27.6622500000       25.0277500000       14.4897500000
 Ar         1.3172500000       27.6622500000       11.8552500000
 Ar         3.9517500000       30.2967500000       11.8552500000
 Ar         3.9517500000       27.6622500000       14.4897500000
 Ar         1.3172500000       30.2967500000       14.4897500000
 Ar         6.5862500000       27.6622500000       11.8552500000
 Ar         9.2207500000       30.2967500000       11.8552500000
 Ar         9.2207500000       27.6622500000       14.4897500000
 Ar         6.5862500000       30.2967500000       14.4897500000
 Ar        11.8552500000       27.6622500000       11.8552500000
 Ar        14.4897500000       30.2967500000       11.8552500000
 Ar        14.4897500000       27.6622500000       14.4897500000
 Ar        11.8552500000       30.2967500000       14.4897500000
 Ar        17.1242500000       27.6622500000       11.8552500000
 Ar        19.7587500000       30.2967500000       11.8552500000
 Ar        19.7587500000       27.6622500000       14.4897500000
 Ar        17.1242500000       30.2967500000       14.4897500000
 Ar        22.3932500000       27.6622500000       11.8552500000
 Ar        25.0277500000       30.2967500000       11.8552500000
 Ar        25.0277500000       27.6622500000       14.4897500000
 Ar        22.3932500000       30.2967500000       14.4897500000
 Ar        27.6622500000       27.6622500000       11.8552500000
 Ar        30.2967500000       30.2967500000       11.8552500000
 Ar        30.2967500000       27.6622500000       14.4897500000
 Ar        27.6622500000       30.2967500000       14.4897500000
 Ar         1.3172500000        1.3172500000       17.1242500000
 Ar         3.9517500000        3.9517500000       17.1242500000
 Ar         3.9517500000        1.3172500000       19.7587500000
 Ar         1.3172500000        3.9517500000       19.7587500000
 Ar         6.5862500000        1.3172500000       17.1242500000
 Ar         9.2207500000        3.9517500000       17.1242500000
 Ar         9.2207500000        1.3172500000       19.7587500000
 Ar         6.5862500000        3.9517500000       19.7587500000
 Ar        11.8552500000        1.3172500000       17.1242500000
 Ar        14.4897500000        3.9517500000       17.1242500000
 Ar        14.4897500000        1.3172500000       19.7587500000
 Ar        11.8552500000        3.9517500000       19.7587500000
 Ar        17.1242500000        1.3172500000       17.1242500000
 Ar        19.7587500000        3.9517500000       17.1242500000
 Ar        19.7587500000        1.3172500000       19.7587500000
 Ar        17.1242500000        3.9517500000       19.7587500000
 Ar        22.3932500000        1.3172500000       17.1242500000
 Ar        25.0277500000        3.9517500000       17.1242500000
 Ar        25.0277500000        1.3172500000       19.7587500000
 Ar        22.3932500000        3.9517500000       19.7587500000
 Ar        27.6622500000        1.3172500000       17.1242500000
 Ar        30.2967500000        3.9517500000       17.1242500000
 Ar        30.2967500000        1.3172500000       19.7587500000
 Ar        27.6622500000        3.9517500000       19.7587500000
 Ar         1.3172500000        6.5862500000       17.1242500000
 Ar         3.9517500000        9.2207500000       17.1242500000
 Ar         3.9517500000        6.5862500000       19.7587500000
 Ar         1.3172500000        9.2207500000       19.7587500000
 Ar         6.5862500000        6.5862500000       17.1242500000
 Ar         9.2207500000        9.2207500000       17.1242500000
 Ar         9.2207500000        6.5862500000       19.7587500000
 Ar         6.5862500000        9.2207500000       19.7587500000
 Ar        11.8552500000        6.5862500000       17.1242500000
 Ar        14.4897500000        9.2207500000       17.1242500000
 Ar        14.4897500000        6.5862500000       19.7587500000
 Ar        11.8552500000        9.2207500000       19.7587500000
 Ar        17.1242500000        6.5862500000       17.1242500000
 Ar        19.7587500000        9.2207500000       17.1242500000
 Ar        19.7587500000        6.5862500000       19.7587500000
 Ar        17.1242500000        9.2207500000       19.7587500000
 Ar        22.3932500000        6.5862500000       17.1242500000
 Ar        25.0277500000        9.2207500000       17.1242500000
 Ar        25.0277500000        6.5862500000       19.7587500000
 Ar        22.3932500000        9.2207500000       19.7587500000
 Ar        27.6622500000        6.5862500000       17.1242500000
 Ar        30.2967500000        9.2207500000       17.1242500000
 Ar        30.2967500000        6.5862500000       19.7587500000
 Ar        27.6622500000        9.2207500000       19.7587500000
 Ar         1.3172500000       11.8552500000       17.1242500000
 Ar         3.9517500000       14.4897500000       17.1242500000
 Ar         3.9517500000       11.8552500000       19.7587500000
 Ar         1.3172500000       14.4897500000       19.7587500000
 Ar         6.5862500000       11.8552500000       17.1242500000
 Ar         9.2207500000       14.4897500000       17.1242500000
 Ar         9.2207500000       11.8552500000       19.7587500000
 Ar         6.5862500000       14.4897500000       19.7587500000
 Ar        11.8552500000       11.8552500000       17.1242500000
 Ar        14.4897500000       14.4897500000       17.1242500000
 Ar        14.4897500000       11.8552500000       19.7587500000
 Ar        11.8552500000       14.4897500000       19.7587500000
 Ar        17.1242500000       11.8552500000       17.1242500000
 Ar        19.7587500000       14.4897500000       17.1242500000
 Ar        19.7587500000       11.8552500000       19.7587500000
 Ar        17.1242500000       14.4897500000       19.7587500000
 Ar        22.3932500000       11.8552500000       17.1242500000
 Ar        25.0277500000       14.4897500000       17.1242500000
 Ar        25.0277500000       11.8552500000       19.7587500000
 Ar        22.3932500000       14.4897500000       19.7587500000
 Ar        27.6622500000       11.8552500000       17.1242500000
 Ar        30.2967500000       14.4897500000       17.1242500000
 Ar        30.2967500000       11.8552500000       19.7587500000
 Ar        27.6622500000       14.4897500000       19.7587500000
 Ar         1.3172500000       17.1242500000       17.1242500000
 Ar         3.9517500000       19.7587500000       17.1242500000
 Ar         3.9517500000       17.1242500000       19.7587500000
 Ar         1.3172500000       19.7587500000       19.7587500000
 Ar         6.5862500000       17.1242500000       17.1242500000
 Ar         9.2207500000       19.7587500000       17.1242500000
 Ar         9.2207500000       17.1242500000       19.7587500000
 Ar         6.5862500000       19.7587500000       19.7587500000
 Ar        11.8552500000       17.1242500000       17.1242500000
 Ar        14.4897500000       19.7587500000       17.1242500000
 Ar        14.4897500000       17.1242500000       19.7587500000
 Ar        11.8552500000       19.7587500000       19.7587500000
 Ar        17.1242500000       17.1242500000       17.1242500000
 Ar        19.7587500000       19.7587500000       17.1242500000
 Ar        19.7587500000       17.1242500000       19.7587500000
 Ar        17.1242500000       19.7587500000       19.7587500000
 Ar        22.3932500000       17.1242500000       17.1242500000
 Ar        25.0277500000       19.7587500000       17.1242500000
 Ar        25.0277500000       17.1242500000       19.7587500000
 Ar        22.3932500000       19.7587500000       19.7587500000
 Ar        27.6622500000       17.1242500000       17.1242500000
 Ar        30.2967500000       19.7587500000       17.1242500000
 Ar        30.2967500000       17.1242500000       19.7587500000
 Ar        27.6622500000       19.7587500000       19.7587500000
 Ar         1.3172500000       22.3932500000       17.1242500000
 Ar         3.9517500000       25.0277500000       17.1242500000
 Ar         3.9517500000       22.3932500000       19.7587500000
 Ar         1.3172500000       25.0277500000       19.7587500000
 Ar         6.5862500000       22.3932500000       17.1242500000
 Ar         9.2207500000       25.0277500000       17.1242500000
 Ar         9.2207500000       22.3932500000       19.7587500000
 Ar         6.5862500000       25.0277500000       19.7587500000
 Ar        11.8552500000       22.3932500000       17.1242500000
 Ar        14.4897500000       25.0277500000       17.1242500000
 Ar        14.4897500000       22.3932500000       19.7587500000
 Ar        11.8552500000       25.0277500000       19.7587500000
 Ar        17.1242500000       22.3932500000       17.1242500000
 Ar        19.7587500000       25.0277500000       17.1242500000
 Ar        19.7587500000       22.3932500000       19.7587500000
 Ar        17.1242500000       25.0277500000       19.7587500000
 Ar        22.3932500000       22.3932500000       17.1242500000
 Ar        25.0277500000       25.0277500000       17.1242500000
 Ar        25.0277500000       22.3932500000       19.7587500000
 Ar        22.3932500000       25.0277500000       19.7587500000
 Ar        27.6622500000       22.3932500000       17.1242500000
 Ar        30.2967500000       25.0277500000       17.1242500000
 Ar        30.2967500000       22.3932500000       19.7587500000
 Ar        27.6622500000       25.0277500000       19.7587500000
 Ar         1.3172500000       27.6622500000       17.1242500000
 Ar         3.9517500000       30.2967500000       17.1242500000
 Ar         3.9517500000       27.6622500000       19.7587500000
 Ar         1.3172500000       30.2967500000       19.7587500000
 Ar         6.5862500000       27.6622500000       17.1242500000
 Ar         9.2207500000       30.2967500000       17.1242500000
 Ar         9.2207500000       27.6622500000       19.7587500000
 Ar         6.5862500000       30.2967500000       19.7587500000
 Ar        11.8552500000       27.6622500000       17.1242500000
 Ar        14.4897500000       30.2967500000       17.1242500000
 Ar        14.4897500000       27.6622500000       19.7587500000
 Ar        11.8552500000       30.2967500000       19.7587500000
 Ar        17.1242500000       27.6622500000       17.1242500000
 Ar        19.7587500000       30.2967500000       17.1242500000
 Ar        19.7587500000       27.6622500000       19.7587500000
 Ar        17.1242500000       30.2967500000       19.7587500000
 Ar        22.3932500000       27.6622500000       17.1242500000
 Ar        25.0277500000       30.2967500000       17.1242500000
 Ar        25.0277500000       27.6622500000       19.7587500000
 Ar        22.3932500000       30.2967500000       19.7587500000
 Ar        27.6622500000       27.6622500000       17.1242500000
 Ar        30.2967500000       30.2967500000       17.1242500000
 Ar        30.2967500000       27.6622500000       19.7587500000
 Ar        27.6622500000       30.2967500000       19.7587500000
 Ar         1.3172500000        1.3172500000       22.3932500000
 Ar         3.9517500000        3.9517500000       22.3932500000
 Ar         3.9517500000        1.3172500000       25.0277500000
 Ar         1.3172500000        3.9517500000       25.0277500000
 Ar         6.5862500000        1.3172500000       22.3932500000
 Ar         9.2207500000        3.9517500000       22.3932500000
 Ar         9.2207500000        1.3172500000       25.0277500000
 Ar         6.5862500000        3.9517500000       25.0277500000
 Ar        11.8552500000        1.3172500000       22.3932500000
 Ar        14.4897500000        3.9517500000       22.3932500000
 Ar        14.4897500000        1.3172500000       25.0277500000
 Ar        11.8552500000        3.9517500000       25.0277500000
 Ar        17.1242500000        1.3172500000       22.3932500000
 Ar        19.7587500000        3.9517500000       22.3932500000
 Ar        19.7587500000        1.3172500000       25.0277500000
 Ar        17.1242500000        3.9517500000       25.0277500000
 Ar        22.3932500000        1.3172500000       22.3932500000
 Ar        25.0277500000        3.9517500000       22.3932500000
 Ar        25.0277500000        1.3172500000       25.0277500000
 Ar        22.3932500000        3.9517500000       25.0277500000
 Ar        27.6622500000        1.3172500000       22.3932500000
 Ar        30.2967500000        3.9517500000       22.3932500000
 Ar        30.2967500000        1.3172500000       25.0277500000
 Ar        27.6622500000        3.9517500000       25.0277500000
 Ar         1.3172500000        6.5862500000       22.3932500000
 Ar         3.9517500000        9.2207500000       22.3932500000
 Ar         3.9517500000        6.5862500000       25.0277500000
 Ar         1.3172500000        9.2207500000       25.0277500000
 Ar         6.5862500000        6.5862500000       22.3932500000
 Ar         9.2207500000        9.2207500000       22.3932500000
 Ar         9.2207500000        6.5862500000       25.0277500000
 Ar         6.5862500000        9.2207500000       25.0277500000
 Ar        11.8552500000        6.5862500000       22.3932500000
 Ar        14.4897500000        9.2207500000       22.3932500000
 Ar        14.4897500000        6.5862500000       25.0277500000
 Ar        11.8552500000        9.2207500000       25.0277500000
 Ar        17.1242500000        6.5862500000       22.3932500000
 Ar        19.7587500000        9.2207500000       22.3932500000
 Ar        19.7587500000        6.5862500000       25.0277500000
 Ar        17.1242500000        9.2207500000       25.0277500000
 Ar        22.3932500000        6.5862500000       22.3932500000
 Ar        25.0277500000        9.2207500000       22.3932500000
 Ar        25.0277500000        6.5862500000       25.0277500000
 Ar        22.3932500000        9.2207500000       25.0277500000
 Ar        27.6622500000        6.5862500000       22.3932500000
 Ar        30.2967500000        9.2207500000       22.3932500000
 Ar        30.2967500000        6.5862500000       25.0277500000
 Ar        27.6622500000        9.2207500000       25.0277500000
 Ar         1.3172500000       11.8552500000       22.3932500000
 Ar         3.9517500000       14.4897500000       22.3932500000
 Ar         3.9517500000       11.8552500000       25.0277500000
 Ar         1.3172500000       14.4897500000       25.0277500000
 Ar         6.5862500000       11.8552500000       22.3932500000
 Ar         9.2207500000       14.4897500000       22.3932500000
 Ar         9.2207500000       11.8552500000       25.0277500000
 Ar         6.5862500000       14.4897500000       25.0277500000
 Ar        11.8552500000       11.8552500000       22.3932500000
 Ar        14.4897500000       14.4897500000       22.3932500000
 Ar        14.4897500000       11.8552500000       25.0277500000
 Ar        11.8552500000       14.4897500000       25.0277500000
 Ar        17.1242500000       11.8552500000       22.3932500000
 Ar        19.7587500000       14.4897500000       22.3932500000
 Ar        19.7587500000       11.8552500000       25.0277500000
 Ar        17.1242500000       14.4897500000       25.0277500000
 Ar        22.3932500000       11.8552500000       22.3932500000
 Ar        25.0277500000       14.4897500000       22.3932500000
 Ar        25.0277500000       11.8552500000       25.0277500000
 Ar        22.3932500000       14.4897500000       25.0277500000
 Ar        27.6622500000       11.8552500000       22.3932500000
 Ar        30.2967500000       14.4897500000       22.3932500000
 Ar        30.2967500000       11.8552500000       25.0277500000
 Ar        27.6622500000       14.4897500000       25.0277500000
 Ar         1.3172500000       17.1242500000       22.3932500000
 Ar         3.9517500000       19.7587500000       22.3932500000
 Ar         3.9517500000       17.1242500000       25.0277500000
 Ar         1.3172500000       19.7587500000       25.0277500000
 Ar         6.5862500000       17.1242500000       22.3932500000
 Ar         9.2207500000       19.7587500000       22.3932500000
 Ar         9.2207500000       17.1242500000       25.0277500000
 Ar         6.5862500000       19.7587500000       25.0277500000
 Ar        11.8552500000       17.1242500000       22.3932500000
 Ar        14.4897500000       19.7587500000       22.3932500000
 Ar        14.4897500000       17.1242500000       25.0277500000
 Ar        11.8552500000       19.7587500000       25.0277500000
 Ar        17.1242500000       17.1242500000       22.3932500000
 Ar        19.7587500000       19.7587500000       22.3932500000
 Ar        19.7587500000       17.1242500000       25.0277500000
 Ar        17.1242500000       19.7587500000       25.0277500000
 Ar        22.3932500000       17.1242500000       22.3932500000
 Ar        25.0277500000       19.7587500000       22.3932500000
 Ar        25.0277500000       17.1242500000       25.0277500000
 Ar        22.3932500000       19.7587500000       25.0277500000
 Ar        27.6622500000       17.1242500000       22.3932500000
 Ar        30.2967500000       19.7587500000       22.3932500000
 Ar        30.2967500000       17.1242500000       25.0277500000
 Ar        27.6622500000       19.7587500000       25.0277500000
 Ar         1.3172500000       22.3932500000       22.3932500000
 Ar         3.9517500000       25.0277500000       22.3932500000
 Ar         3.9517500000       22.3932500000       25.0277500000
 Ar         1.3172500000       25.0277500000       25.0277500000
 Ar         6.5862500000       22.3932500000       22.3932500000
 Ar         9.2207500000       25.0277500000       22.3932500000
 Ar         9.2207500000       22.3932500000       25.0277500000
 Ar         6.5862500000       25.0277500000       25.0277500000
 Ar        11.8552500000       22.3932500000       22.3932500000
 Ar        14.4897500000       25.0277500000       22.3932500000
 Ar        14.4897500000       22.3932500000       25.0277500000
 Ar        11.8552500000       25.0277500000       25.0277500000
 Ar        17.1242500000       22.3932500000       22.3932500000
 Ar        19.7587500000       25.0277500000       22.3932500000
 Ar        19.7587500000       22.3932500000       25.0277500000
 Ar        17.1242500000       25.0277500000       25.0277500000
 Ar        22.3932500000       22.3932500000       22.3932500000
 Ar        25.0277500000       25.0277500000       22.3932500000
 Ar        25.0277500000       22.3932500000       25.0277500000
 Ar        22.3932500000       25.0277500000       25.0277500000
 Ar        27.6622500000       22.3932500000       22.3932500000
 Ar        30.2967500000       25.0277500000       22.3932500000
 Ar        30.2967500000       22.3932500000       25.0277500000
 Ar        27.6622500000       25.0277500000       25.0277500000
 Ar         1.3172500000       27.6622500000       22.3932500000
 Ar         3.9517500000       30.2967500000       22.3932500000
 Ar         3.9517500000       27.6622500000       25.0277500000
 Ar         1.3172500000       30.2967500000       25.0277500000
 Ar         6.5862500000       27.6622500000       22.3932500000
 Ar         9.2207500000       30.2967500000       22.3932500000
 Ar         9.2207500000       27.6622500000       25.0277500000
 Ar         6.5862500000       30.2967500000       25.0277500000
 Ar        11.8552500000       27.6622500000       22.3932500000
 Ar        14.4897500000       30.2967500000       22.3932500000
 Ar        14.4897500000       27.6622500000       25.0277500000
 Ar        11.8552500000       30.2967500000       25.0277500000
 Ar        17.1242500000       27.6622500000       22.3932500000
 Ar        19.7587500000       30.2967500000       22.3932500000
 Ar        19.7587500000       27.6622500000       25.0277500000
 Ar        17.1242500000       30.2967500000       25.0277500000
 Ar        22.3932500000       27.6622500000       22.3932500000
 Ar        25.0277500000       30.2967500000       22.3932500000
 Ar        25.0277500000       27.6622500000       25.0277500000
 Ar        22.3932500000       30.2967500000       25.0277500000
 Ar        27.6622500000       27.6622500000       22.3932500000
 Ar        30.2967500000       30.2967500000       22.3932500000
 Ar        30.2967500000       27.6622500000       25.0277500000
 Ar        27.6622500000       30.2967500000       25.0277500000
 Ar         1.3172500000        1.3172500000       27.6622500000
 Ar         3.9517500000        3.9517500000       27.6622500000
 Ar         3.9517500000        1.3172500000       30.2967500000
 Ar         1.3172500000        3.9517500000       30.2967500000
 Ar         6.5862500000        1.3172500000       27.6622500000
 Ar         9.2207500000        3.9517500000       27.6622500000
 Ar         9.2207500000        1.3172500000       30.2967500000
 Ar         6.5862500000        3.9517500000       30.2967500000
 Ar        11.8552500000        1.3172500000       27.6622500000
 Ar        14.4897500000        3.9517500000       27.6622500000
 Ar        14.4897500000        1.3172500000       30.2967500000
 Ar        11.8552500000        3.9517500000       30.2967500000
 Ar        17.1242500000        1.3172500000       27.6622500000
 Ar        19.7587500000        3.9517500000       27.6622500000
 Ar        19.7587500000        1.3172500000       30.2967500000
 Ar        17.1242500000        3.9517500000       30.2967500000
 Ar        22.3932500000        1.3172500000       27.6622500000
 Ar        25.0277500000        3.9517500000       27.6622500000
 Ar        25.0277500000        1.3172500000       30.2967500000
 Ar        22.3932500000        3.9517500000       30.2967500000
 Ar        27.6622500000        1.3172500000       27.6622500000
 Ar        30.2967500000        3.9517500000       27.6622500000
 Ar        30.2967500000        1.3172500000       30.2967500000
 Ar        27.6622500000        3.9517500000       30.2967500000
 Ar         1.3172500000        6.5862500000       27.6622500000
 Ar         3.9517500000        9.2207500000       27.6622500000
 Ar         3.9517500000        6.5862500000       30.2967500000
 Ar         1.3172500000        9.2207500000       30.2967500000
 Ar         6.5862500000        6.5862500000       27.6622500000
 Ar         9.2207500000        9.2207500000       27.6622500000
 Ar         9.2207500000        6.5862500000       30.2967500000
 Ar         6.5862500000        9.2207500000       30.2967500000
 Ar        11.8552500000        6.5862500000       27.6622500000
 Ar        14.4897500000        9.2207500000       27.6622500000
 Ar        14.4897500000        6.5862500000       30.2967500000
 Ar        11.8552500000        9.2207500000       30.2967500000
 Ar        17.1242500000        6.5862500000       27.6622500000
 Ar        19.7587500000        9.2207500000       27.6622500000
 Ar        19.7587500000        6.5862500000       30.2967500000
 Ar        17.1242500000        9.2207500000       30.2967500000
 Ar        22.3932500000        6.5862500000       27.6622500000
 Ar        25.0277500000        9.2207500000       27.6622500000
 Ar        25.0277500000        6.5862500000       30.2967500000
 Ar        22.3932500000        9.2207500000       30.2967500000
 Ar        27.6622500000        6.5862500000       27.6622500000
 Ar        30.2967500000        9.2207500000       27.6622500000
 Ar        30.2967500000        6.5862500000       30.2967500000
 Ar        27.6622500000        9.2207500000       30.2967500000
 Ar         1.3172500000       11.8552500000       27.6622500000
 Ar         3.9517500000       14.4897500000       27.6622500000
 Ar         3.9517500000       11.8552500000       30.2967500000
 Ar         1.3172500000       14.4897500000       30.2967500000
 Ar         6.5862500000       11.8552500000       27.6622500000
 Ar         9.2207500000       14.4897500000       27.6622500000
 Ar         9.2207500000       11.8552500000       30.2967500000
 Ar         6.5862500000       14.4897500000       30.2967500000
 Ar        11.8552500000       11.8552500000       27.6622500000
 Ar        14.4897500000       14.4897500000       27.6622500000
 Ar        14.4897500000       11.8552500000       30.2967500000
 Ar        11.8552500000       14.4897500000       30.2967500000
 Ar        17.1242500000       11.8552500000       27.6622500000
 Ar        19.7587500000       14.4897500000       27.6622500000
 Ar        19.7587500000       11.8552500000       30.2967500000
 Ar        17.1242500000       14.4897500000       30.2967500000
 Ar        22.3932500000       11.8552500000       27.6622500000
 Ar        25.0277500000       14.4897500000       27.6622500000
 Ar        25.0277500000       11.8552500000       30.2967500000
 Ar        22.3932500000       14.4897500000       30.2967500000
 Ar        27.6622500000       11.8552500000       27.6622500000
 Ar        30.2967500000       14.4897500000       27.6622500000
 Ar        30.2967500000       11.8552500000       30.2967500000
 Ar        27.6622500000       14.4897500000       30.2967500000
 Ar         1.3172500000       17.1242500000       27.6622500000
 Ar         3.9517500000       19.7587500000       27.6622500000
 Ar         3.9517500000       17.1242500000       30.2967500000
 Ar         1.3172500000       19.7587500000       30.2967500000
 Ar         6.5862500000       17.1242500000       27.6622500000
 Ar         9.2207500000       19.7587500000       27.6622500000
 Ar         9.2207500000       17.1242500000       30.2967500000
 Ar         6.5862500000       19.7587500000       30.2967500000
 Ar        11.8552500000       17.1242500000       27.6622500000
 Ar        14.4897500000       19.7587500000       27.6622500000
 Ar        14.4897500000       17.1242500000       30.2967500000
 Ar        11.8552500000       19.7587500000       30.2967500000
 Ar        17.1242500000       17.1242500000       27.6622500000
 Ar        19.7587500000       19.7587500000       27.6622500000
 Ar        19.7587500000       17.1242500000       30.2967500000
 Ar        17.1242500000       19.7587500000       30.2967500000
 Ar        22.3932500000       17.1242500000       27.6622500000
 Ar        25.0277500000       19.7587500000       27.6622500000
 Ar        25.0277500000       17.1242500000       30.2967500000
 Ar        22.3932500000       19.7587500000       30.2967500000
 Ar        27.6622500000       17.1242500000       27.6622500000
 Ar        30.2967500000       19.7587500000       27.6622500000
 Ar        30.2967500000       17.1242500000       30.2967500000
 Ar        27.6622500000       19.7587500000       30.2967500000
 Ar         1.3172500000       22.3932500000       27.6622500000
 Ar         3.9517500000       25.0277500000       27.6622500000
 Ar         3.9517500000       22.3932500000       30.2967500000
 Ar         1.3172500000       25.0277500000       30.2967500000
 Ar         6.5862500000       22.3932500000       27.6622500000
 Ar         9.2207500000       25.0277500000       27.6622500000
 Ar         9.2207500000       22.3932500000       30.2967500000
 Ar         6.5862500000       25.0277500000       30.2967500000
 Ar        11.8552500000       22.3932500000       27.6622500000
 Ar        14.4897500000       25.0277500000       27.6622500000
 Ar        14.4897500000       22.3932500000       30.2967500000
 Ar        11.8552500000       25.0277500000       30.2967500000
 Ar        17.1242500000       22.3932500000       27.6622500000
 Ar        19.7587500000       25.0277500000       27.6622500000
 Ar        19.7587500000       22.3932500000       30.2967500000
 Ar        17.1242500000       25.0277500000       30.2967500000
 Ar        22.3932500000       22.3932500000       27.6622500000
 Ar        25.0277500000       25.0277500000       27.6622500000
 Ar        25.0277500000       22.3932500000       30.2967500000
 Ar        22.3932500000       25.0277500000       30.2967500000
 Ar        27.6622500000       22.3932500000       27.6622500000
 Ar        30.2967500000       25.0277500000       27.6622500000
 Ar        30.2967500000       22.3932500000       30.2967500000
 Ar        27.6622500000       25.0277500000       30.2967500000
 Ar         1.3172500000       27.6622500000       27.6622500000
 Ar         3.9517500000       30.2967500000       27.6622500000
 Ar         3.9517500000       27.6622500000       30.2967500000
 Ar         1.3172500000       30.2967500000       30.2967500000
 Ar         6.5862500000       27.6622500000       27.6622500000
 Ar         9.2207500000       30.2967500000       27.6622500000
 Ar         9.2207500000       27.6622500000       30.2967500000
 Ar         6.5862500000       30.2967500000       30.2967500000
 Ar        11.8552500000       27.6622500000       27.6622500000
 Ar        14.4897500000       30.2967500000       27.6622500000
 Ar        14.4897500000       27.6622500000       30.2967500000
 Ar        11.8552500000       30.2967500000       30.2967500000
 Ar        17.1242500000       27.6622500000       27.6622500000
 Ar        19.7587500000       30.2967500000       27.6622500000
 Ar        19.7587500000       27.6622500000       30.2967500000
 Ar        17.1242500000       30.2967500000       30.2967500000
 Ar        22.3932500000       27.6622500000       27.6622500000
 Ar        25.0277500000       30.2967500000       27.6622500000
 Ar        25.0277500000       27.6622500000       30.2967500000
 Ar        22.3932500000       30.2967500000       30.2967500000
 Ar        27.6622500000       27.6622500000       27.6622500000
 Ar        30.2967500000       30.2967500000       27.6622500000
 Ar        30.2967500000       27.6622500000       30.2967500000
 Ar        27.6622500000       30.2967500000       30.2967500000
