38
 generated by VMD
  Ar         5.214170       -2.278250        3.435340
  Ar        -6.281910        1.660380        1.400130
  Ar        -4.094030       -2.434180       -4.636080
  Ar         3.010940       -4.868390       -3.378250
  Ar        -0.529122        1.756750        6.388540
  Ar        -1.940750       -4.463590        2.324360
  Ar        -5.248120        3.440860       -1.796920
  Ar         2.421490       -1.947500       -5.740630
  Ar        -1.194810        4.820330        4.236510
  Ar         5.371660        1.520740        3.382880
  Ar        -1.186740       -0.711297       -6.379410
  Ar        -4.137020        1.361450       -4.862380
  Ar        -4.116340        4.771390        1.703170
  Ar         2.454950        3.569900        4.882650
  Ar         5.376650       -1.898000       -3.178120
  Ar         6.495550       -0.582607        0.282130
  Ar         3.127490        3.584220        1.185080
  Ar         1.284840        1.417980       -4.513400
  Ar        -0.544967        4.842430        0.534924
  Ar        -1.683790        3.503620       -2.986930
  Ar         4.258380        1.467790       -1.934950
  Ar        -3.413100        1.730590        3.902650
  Ar        -0.537284       -3.651430       -4.031520
  Ar        -5.202920       -0.373545       -1.632460
  Ar         2.358710       -0.246876        4.924460
  Ar         4.136060       -3.573150        0.020875
  Ar        -4.108720       -1.394610        1.858740
  Ar        -3.014650       -3.442140       -1.159730
  Ar         0.538272       -4.659400       -0.530739
  Ar         1.640020       -3.364170        2.876470
  Ar        -1.231970       -1.346420        4.353250
  Ar         0.773848        1.779790       -0.926807
  Ar         2.927310       -0.244402        1.226820
  Ar        -1.623580       -0.320637       -2.719400
  Ar         1.850120       -1.510750       -2.104430
  Ar        -2.693260        1.681240        0.231776
  Ar         0.119345        1.728360        2.670670
  Ar        -0.576740       -1.326460        0.690739
