      38
 i =      33, E =       -0.0604861247
 Ar         4.8522400000       -2.6651900000        3.6435000000
 Ar        -5.2381700000        2.0593400000        2.4063200000
 Ar        -3.5115800000       -0.8929160000       -3.2081900000
 Ar         3.0473900000       -4.6175800000       -3.3040000000
 Ar         0.4275980000        1.7788100000        5.7414100000
 Ar        -2.1344500000       -4.9187600000        1.9806900000
 Ar        -4.9204700000        2.6864400000       -2.5683300000
 Ar         2.4913200000       -1.1986200000       -4.7849100000
 Ar        -1.6763300000        3.3359600000        2.9660900000
 Ar         4.5677100000        3.1612800000        0.7591810000
 Ar        -0.8921590000       -0.9094910000       -6.3042100000
 Ar        -2.4657200000        2.2230900000       -5.3141100000
 Ar        -3.7595300000        4.8667500000        0.2771660000
 Ar         2.0019100000        4.1197300000        3.2986600000
 Ar         5.5745100000       -1.9713600000       -2.7891800000
 Ar         5.5130800000       -0.5185000000        0.5689320000
 Ar         2.4202700000        4.7953400000       -1.9891900000
 Ar         1.3695100000        2.6836200000       -5.0993100000
 Ar        -0.0556516000        5.7908700000        0.6688920000
 Ar        -1.2001100000        3.9051900000       -2.3106800000
 Ar         3.6843200000        1.3427300000       -2.3678900000
 Ar        -3.1868600000        0.6780850000        5.2747900000
 Ar        -0.4627220000       -3.3119700000       -3.5290300000
 Ar        -6.0534800000       -0.2571640000       -0.5130560000
 Ar         1.8257300000       -1.6789100000        5.7934000000
 Ar         4.4252700000       -4.2914700000        0.2526920000
 Ar        -3.9925800000       -1.5592600000        2.2988300000
 Ar        -4.5038100000       -3.7380800000       -0.8546470000
 Ar         0.6920020000       -5.2705700000       -0.5321400000
 Ar         1.3383500000       -3.1950000000        2.4254800000
 Ar        -1.6499800000       -2.8216800000        5.0338400000
 Ar         0.9905660000        2.0984400000        0.2565250000
 Ar         2.9518700000        0.4903080000        2.9706100000
 Ar        -0.1613890000        0.3866230000       -2.7618000000
 Ar         2.2163800000       -1.6225600000       -0.8502100000
 Ar        -2.6217000000        1.2670300000       -0.0643446000
 Ar        -0.5991330000       -0.1340200000        2.7440500000
 Ar        -1.3041800000       -2.0965400000       -0.2158350000
