38

Ar 4.82344 -2.65632 3.63931
Ar -5.22077 2.05285 2.4227
Ar -3.51473 -0.891591 -3.20452
Ar 3.04414 -4.60784 -3.29138
Ar 0.455731 1.80933 5.71312
Ar -2.16813 -4.95068 1.95532
Ar -4.92421 2.6852 -2.55719
Ar 2.49864 -1.19782 -4.76649
Ar -1.6491 3.32107 2.94539
Ar 4.57919 3.18051 0.745725
Ar -0.868375 -0.88806 -6.3059
Ar -2.47748 2.22048 -5.307
Ar -3.75838 4.85782 0.285462
Ar 2.0216 4.16066 3.27854
Ar 5.56906 -1.96779 -2.75937
Ar 5.54539 -0.498947 0.586912
Ar 2.41435 4.80145 -1.99997
Ar 1.35928 2.66883 -5.09695
Ar -0.061894 5.81063 0.65637
Ar -1.20434 3.89665 -2.30651
Ar 3.68367 1.34713 -2.35997
Ar -3.14516 0.663626 5.26998
Ar -0.467659 -3.31333 -3.54413
Ar -6.05978 -0.251526 -0.503107
Ar 1.79433 -1.66156 5.76723
Ar 4.41382 -4.28959 0.258285
Ar -3.98619 -1.56416 2.29466
Ar -4.53109 -3.73371 -0.860402
Ar 0.676896 -5.28592 -0.546492
Ar 1.31261 -3.25605 2.43928
Ar -1.66194 -2.85761 5.00956
Ar 0.991103 2.11711 0.258986
Ar 2.965 0.518422 2.96342
Ar -0.158712 0.377081 -2.74811
Ar 2.21643 -1.58727 -0.779907
Ar -2.61843 1.25103 -0.0618881
Ar -0.574403 -0.159444 2.73129
Ar -1.31391 -2.12067 -0.222265
