38
 generated by VMD
 Ar        4.852240       -2.665190        3.643500
 Ar       -5.289314        1.907848        2.373279
 Ar       -3.511580       -0.892916       -3.208190
 Ar        3.047390       -4.617580       -3.304000
 Ar        0.852260        1.783050        5.805101
 Ar       -2.134450       -4.918760        1.980690
 Ar       -4.920470        2.686440       -2.568330
 Ar        2.491320       -1.198620       -4.784910
 Ar       -1.788848        3.314199        2.949782
 Ar        4.392172        3.191582        0.740633
 Ar       -0.892159       -0.909491       -6.304210
 Ar       -2.465720        2.223090       -5.314110
 Ar       -3.759530        4.866750        0.277166
 Ar        2.001910        4.119730        3.298660
 Ar        5.574510       -1.971360       -2.789180
 Ar        5.513080       -0.518500        0.568932
 Ar        2.421146        4.808308       -1.987690
 Ar        1.369510        2.683620       -5.099310
 Ar       -0.055652        5.790870        0.668892
 Ar       -1.200110        3.905190       -2.310680
 Ar        3.684320        1.342730       -2.367890
 Ar       -3.128956        0.733622        5.290273
 Ar       -0.462722       -3.311970       -3.529030
 Ar       -6.448848       -0.413919       -0.583970
 Ar        1.825730       -1.678910        5.793400
 Ar        4.425270       -4.291470        0.252692
 Ar       -4.112122       -1.676242        2.271435
 Ar       -4.503810       -3.738080       -0.854647
 Ar        0.692002       -5.270570       -0.532140
 Ar        1.338350       -3.195000        2.425480
 Ar       -1.649980       -2.821680        5.033840
 Ar        0.990566        2.098440        0.256525
 Ar        2.951870        0.490308        2.970610
 Ar       -0.161389        0.386623       -2.761800
 Ar        2.216380       -1.622560       -0.850210
 Ar       -2.621700        1.267030       -0.064345
 Ar       -0.599133       -0.134020        2.744050
 Ar       -1.304180       -2.096540       -0.215835
