      84
 i =       46, E =     -8794.5472610323
 Pd         0.0000000000        0.0000000000        0.0000000000
 Pd         0.6831165873       10.3915000459        4.0149505052
 Pd        12.1456932236        0.1667323944        4.0901305620
 Pd         1.0058509112        1.3677437826        4.0711830962
 Ga        13.1590358700        1.6194879000        2.0393697400
 Ga        12.7495602400       10.5950919300        2.0348819900
 Ga         1.7304444400       11.7291497500        2.0372768400
 Ga        13.8165912391        0.0018337786        6.4865151963
 Pd        -0.0000000000        3.9902187900        2.8215107700
 Pd         0.7353389822        2.4069647980        6.8668214344
 Pd        12.0080441462        4.1733639646        6.8851469540
 Pd         1.0166179636        5.3297492172        6.8544802954
 Ga        13.0580286339        5.5979597834        5.1550424848
 Ga        12.8104036260        2.6268871107        5.0761004189
 Ga         1.8426582844        3.7530860502        5.0815421495
 Ga        13.8169322700        3.9925943900        0.2841365800
 Pd         0.0017000976        7.9574606843        5.6449188231
 Pd         0.7304413000        6.4025579400        1.1920551000
 Pd        12.0847377300        8.1312967600        1.1876464500
 Pd         0.9908687300        9.3966819300        1.1854663800
 Ga        13.8169322700        7.9828131800        3.1056473500
 Pd         3.4556308400        5.9853281900        0.0000000000
 Pd         4.1625003102        4.4079595823        4.0115666152
 Pd         1.7753398519        6.1412388289        4.0887261041
 Pd         4.4680008035        7.3533845365        4.0847635710
 Ga         2.7921433500        7.6048160900        2.0393697400
 Ga         2.3826677200        4.6097637400        2.0348819900
 Ga         5.1860752800        5.7438215600        2.0372768400
 Ga         3.4508413067        5.9867775670        6.4107195953
 Pd         3.4556308400        9.9755469800        2.8215107700
 Pd         4.1198725303        8.3878126725        6.8506584425
 Pd         1.7388607159       10.1699454044        6.8334746245
 Pd         4.4125678876       11.3404104342        6.8597334903
 Ga         2.7617118298       11.5784848697        5.0063487711
 Ga         2.3846061208        8.6099385745        5.0007304624
 Ga         5.3034442979        9.7393260684        5.1564709939
 Ga         3.4500397500        9.9779225700        0.2841365800
 Pd         3.4747619851        1.9453038993        5.6486287940
 Pd         4.1860721400        0.4172297500        1.1920551000
 Pd         1.7178452100        2.1459685700        1.1876464500
 Pd         4.4464995700        3.4113537400        1.1854663800
 Ga         3.4500397500        1.9974849900        3.1056473500
 Pd         6.9112616800       -0.0000000000       -0.0000000000
 Pd         7.6165147960       10.3820609213        4.0059904848
 Pd         5.2475557635        0.1384329959        4.0886340158
 Pd         7.9071320840        1.3808673560        4.0663489028
 Ga         6.2477741900        1.6194879000        2.0393697400
 Ga         5.8382985600       10.5950919300        2.0348819900
 Ga         8.6417061200       11.7291497500        2.0372768400
 Ga         6.8330628591        0.0760883649        6.4882705832
 Pd         6.9112616800        3.9902187900        2.8215107700
 Pd         7.5914457263        2.4388363568        6.8631153477
 Pd         5.1692067167        4.1615227958        6.8564703303
 Pd         7.9039483599        5.3368871086        6.8747732369
 Ga         6.2157434022        5.5943369083        5.0808136817
 Ga         5.8409969911        2.6256808772        5.0027963789
 Ga         8.6858619511        3.7541243835        5.0797101837
 Ga         6.9056705900        3.9925943900        0.2841365800
 Pd         6.9646187237        7.9380641742        5.6431767552
 Pd         7.6417029800        6.4025579400        1.1920551000
 Pd         5.1734760500        8.1312967600        1.1876464500
 Pd         7.9021304100        9.3966819300        1.1854663800
 Ga         6.9056705900        7.9828131800        3.1056473500
 Pd        10.3668925200        5.9853281900       -0.0000000000
 Pd        11.0720035450        4.3926481796        4.0118762863
 Pd         8.7063481688        6.1362311348        4.0817805745
 Pd        11.3836805453        7.3379309181        4.0664155329
 Ga         9.7034050300        7.6048160900        2.0393697400
 Ga         9.2939294000        4.6097637400        2.0348819900
 Ga        12.0973369600        5.7438215600        2.0372768400
 Ga        10.2904439059        6.0613996933        6.4125720948
 Pd        10.3668925200        9.9755469800        2.8215107700
 Pd        11.0549510673        8.4281413172        6.8713446039
 Pd         8.5869944820       10.1772826875        6.8196985095
 Pd        11.3505055097       11.3550046853        6.8339350255
 Ga         9.6027245019       11.6526830261        5.0819749494
 Ga         9.3536899173        8.6147934211        5.0020358192
 Ga        12.1415921724        9.7410449911        5.0801213509
 Ga        10.3613014300        9.9779225700        0.2841365800
 Pd        10.3910298623        1.9988960078        5.6469713623
 Pd        11.0973338200        0.4172297500        1.1920551000
 Pd         8.6291068900        2.1459685700        1.1876464500
 Pd        11.3577612500        3.4113537400        1.1854663800
 Ga        10.3613014300        1.9974849900        3.1056473500
