      84
 i =      150, E =     -8807.0420429501
 Pd         0.0000000000        0.0000000000        0.0000000000
 Pd         0.6997684364       10.4005224086        4.0492467724
 Pd        12.1595601311        0.1624490703        4.1101297379
 Pd         1.0202382251        1.3804767222        4.0549427976
 Ga        13.1590360000        1.6194880000        2.0393700000
 Ga        12.7495600000       10.5950920000        2.0348820000
 Ga         2.0845450000       11.4193290000        2.0667680000
 Ga        13.8180320364       -0.0008516485        6.4845519451
 Pd         0.0000000000        3.9902190000        2.8215110000
 Pd         0.7459971214        2.3865445992        6.8704310150
 Pd        12.0145394994        4.1596997379        6.9016200277
 Pd         0.9097070913        5.2525556766        6.9070494665
 Ga        13.0552142407        5.5981345418        5.1530343503
 Ga        12.8173708683        2.6268152544        5.0758831249
 Ga         1.8394912139        3.7527338868        5.0808148781
 Ga        13.8169330000        3.9925940000        0.2841370000
 Pd        -0.0059858813        7.9512571001        5.6601637209
 Pd         0.7304410000        6.4025580000        1.1920550000
 Pd        12.0847380000        8.1312970000        1.1876470000
 Pd         0.9908690000        9.3966820000        1.1854660000
 Ga        13.8169330000        7.9828130000        3.1056470000
 Pd         3.4556310000        5.9853280000        0.0000000000
 Pd         4.1967757394        4.4133209159        4.0611271887
 Pd         1.7585996746        6.1317652631        4.1020059904
 Pd         4.4600252942        7.3799245724        4.0619611891
 Ga         2.7921430000        7.6048160000        2.0393700000
 Ga         2.3826680000        4.6097640000        2.0348820000
 Ga         5.1860750000        5.7438220000        2.0372770000
 Ga         3.2342878859        5.9931246200        6.4094785426
 Pd         3.4556310000        9.9755470000        2.8215110000
 Pd         4.1044034166        8.3485384161        6.8437756776
 Pd         1.7453269644       10.1658629530        6.8553620512
 Pd         4.4361951033       11.3044482997        6.8916580004
 Ga         2.7589794451       11.6499970284        5.0845255201
 Ga         2.3807102039        8.6140151986        5.0027184605
 Ga         5.2995671752        9.7401229123        5.1577013705
 Ga         3.4500400000        9.9779220000        0.2841370000
 Pd         3.4885614503        1.9986590682        5.6645302542
 Pd         4.1860720000        0.4172300000        1.1920550000
 Pd         1.7178450000        2.1459690000        1.1876470000
 Pd         4.4464990000        3.4113540000        1.1854660000
 Ga         3.4500400000        1.9974850000        3.1056470000
 Pd         6.9112620000        0.0000000000        0.0000000000
 Pd         7.6247073075       10.3983948744        4.0175605844
 Pd         5.2430170022        0.1449804613        4.1063177243
 Pd         7.8918100433        1.4020992574        4.1287000452
 Ga         6.2477740000        1.6194880000        2.0393700000
 Ga         5.8382990000       10.5950920000        2.0348820000
 Ga         8.6417060000       11.7291500000        2.0372770000
 Ga         6.8341076927        0.0741665583        6.4863177922
 Pd         6.9112620000        3.9902190000        2.8215110000
 Pd         7.6033380169        2.4816142266        6.9453971804
 Pd         5.1222175708        4.3024855794        6.8635714473
 Pd         7.9277407903        5.3932569527        6.9053568533
 Ga         6.2143725415        5.7405834860        5.0780852025
 Ga         5.8388418322        2.6274504351        5.0733240405
 Ga         8.6863301546        3.7521236665        5.0766783116
 Ga         6.9056710000        3.9925940000        0.2841370000
 Pd         6.9925614726        8.0073944999        5.6768208331
 Pd         7.6417030000        6.4025580000        1.1920550000
 Pd         5.1734760000        8.1312970000        1.1876470000
 Pd         7.9021310000        9.3966820000        1.1854660000
 Ga         6.9056710000        7.9828130000        3.1056470000
 Pd        10.3668930000        5.9853280000        0.0000000000
 Pd        11.0879453458        4.3819995102        4.0105829915
 Pd         8.6881645934        6.1217916408        4.1373814039
 Pd        11.3739267126        7.3328524823        4.0866089254
 Ga         9.7034050000        7.6048160000        2.0393700000
 Ga         9.2939290000        4.6097640000        2.0348820000
 Ga        12.0973370000        5.7438220000        2.0372770000
 Ga        10.3617105655        6.0608302825        6.4098087960
 Pd        10.3668930000        9.9755470000        2.8215110000
 Pd        11.0544460483        8.4401846497        6.8804573549
 Pd         8.5908201209       10.1595473604        6.8597063129
 Pd        11.3696175075       11.3350488036        6.8705606818
 Ga         9.5991583370       11.6550805520        5.1568571259
 Ga         9.3548647437        8.6175366119        5.0018005744
 Ga        12.1443994204        9.7415003527        5.0793869392
 Ga        10.3613010000        9.9779220000        0.2841370000
 Pd        10.4127799922        2.0004998724        5.6369451058
 Pd        11.0973340000        0.4172300000        1.1920550000
 Pd         8.6291070000        2.1459690000        1.1876470000
 Pd        11.3577610000        3.4113540000        1.1854660000
 Ga        10.3613010000        1.9974850000        3.1056470000
