      38
 i =      40, E =       -0.0604878400
 Ar        15.3022824059        7.0712009285       13.8866605262
 Ar         5.1812404922       11.7766857322       12.6696350355
 Ar         6.9109487557        8.8302505552        7.0431911232
 Ar        13.4873612337        5.1184805322        6.9368194493
 Ar        10.8711489775       11.5073690735       15.9888427368
 Ar         8.3087544060        4.8108581758       12.2356906303
 Ar         5.4796148406       12.4018711529        7.6892292011
 Ar        12.9235042175        8.5391378688        5.4569310898
 Ar         8.7440808296       13.0637255213       13.2140085468
 Ar        14.9942681676       12.9026279329       10.9995454961
 Ar         9.5383452908        8.8333323012        3.9407622799
 Ar         7.9340772593       11.9519167770        4.9378127621
 Ar         6.6366075251       14.5924440901       10.5335452764
 Ar        12.4247407298       13.8611357262       13.5373823026
 Ar        16.0131101821        7.7691051074        7.4468939980
 Ar        15.9554181575        9.2224608565       10.8087274642
 Ar        12.8220826518       14.5326135173        8.2551279252
 Ar        11.7751187780       12.4180445931        5.1358752224
 Ar        10.3437582211       15.5325494626       10.9179533252
 Ar         9.2005195461       13.6385589476        7.9405820833
 Ar        14.1120671638       11.0865229021        7.8689251333
 Ar         7.2502663901       10.4091250686       15.5333404516
 Ar         9.9719000712        6.4185874853        6.7123754043
 Ar         4.3678582013        9.4519991101        9.7468390154
 Ar        12.2699953125        8.0433134316       16.0404328746
 Ar        14.8751313672        5.4431692354       10.4913001770
 Ar         6.4381473826        8.1585524756       12.5562721116
 Ar         5.9346522567        5.9773571608        9.3941237152
 Ar        11.1323478713        4.4577364514        9.7103610174
 Ar        11.7826231136        6.5351315174       12.6704780776
 Ar         8.7862951311        6.9093851869       15.2923678181
 Ar        11.4085434989       11.8335421467       10.5031714086
 Ar        13.3852404549       10.2222589211       13.2113596426
 Ar        10.2618787101       10.1210027348        7.4847726065
 Ar        12.6568297469        8.1128276544        9.3918267920
 Ar         7.7947652426       10.9915755859       10.1885168579
 Ar         9.8334503988        9.5924393695       12.9937339915
 Ar         9.1328000184        7.6314567102       10.0321204304
      38
 i =      40, E =       -0.0604066276
 Ar        15.2433456199        7.0978957338       13.7849448230
 Ar         5.2181630186       11.7542783182       12.6804947431
 Ar         6.9317889246        8.8265023563        7.0589319779
 Ar        13.3274945603        5.2763114299        6.9716931349
 Ar        10.9042316653       11.5387454221       15.9570166778
 Ar         8.2383283451        4.7511799057       12.2009998249
 Ar         5.5299063388       12.3854971059        7.6627467157
 Ar        12.9673581700        8.6319627054        5.4233134504
 Ar         8.7819870050       13.0306633536       13.1910483626
 Ar        15.0023574711       12.9921024568       11.0000712609
 Ar         9.5627709131        8.7368818044        3.9909103294
 Ar         7.9996288126       11.8888307010        4.9317167144
 Ar         6.6528027180       14.5521391759       10.5265548363
 Ar        12.4316408943       13.9420951014       13.5387981248
 Ar        15.9613324588        7.7868091433        7.5174403041
 Ar        16.0311474757        9.3307747495       10.8275840132
 Ar        12.8280922084       14.5803302050        8.2573071205
 Ar        11.7983790532       12.4420423290        5.1747505539
 Ar        10.3277428497       15.5576395884       10.9042334993
 Ar         9.2234314766       13.6114889702        7.9348405385
 Ar        14.1158099828       11.1235597138        7.9060235965
 Ar         7.3169781374       10.3646557361       15.5131817875
 Ar         9.7730506859        6.2842135673        6.7106294657
 Ar         4.3783429337        9.4720781820        9.7457175049
 Ar        12.2513692259        8.0670173986       15.9670985295
 Ar        14.7925890162        5.4041260625       10.4573446830
 Ar         6.4745512652        8.1542360396       12.5341426479
 Ar         5.9034035494        5.9869627111        9.3884535281
 Ar        11.0556952308        4.3603864304        9.7058474562
 Ar        11.7208722900        6.3998987595       12.6833461998
 Ar         8.7912063522        6.8486234520       15.2482145122
 Ar        11.4227280983       11.8828360002       10.5150682513
 Ar        13.4313256205       10.3152968904       13.2176460023
 Ar        10.3049318363       10.0779643268        7.5064005219
 Ar        12.6714717352        8.2270995740        9.5841583666
 Ar         7.8283436876       10.9571112744       10.1851459403
 Ar         9.9042149160        9.5513097354       12.9689417427
 Ar         9.1429604575        7.5788055904       10.0247762580
      38
 i =      40, E =       -0.0603506836
 Ar        15.2112596148        7.1127262914       13.6778226811
 Ar         5.2358487515       11.7391340301       12.6800881008
 Ar         6.9599487584        8.8277376211        7.0730763446
 Ar        13.1388489845        5.4618736641        7.0046839589
 Ar        10.9221095506       11.5374647331       15.9483036456
 Ar         8.1960368636        4.7304313435       12.1927410777
 Ar         5.5754971060       12.3673181673        7.6239051846
 Ar        13.0467175021        8.7571286355        5.3447184370
 Ar         8.7932034707       13.0120150295       13.1827841768
 Ar        15.0044027269       13.0639024666       11.0151272636
 Ar         9.5894523893        8.6133053998        4.0665970583
 Ar         8.0747308057       11.8234305757        4.9195338933
 Ar         6.6539292203       14.5216340914       10.5106958724
 Ar        12.4199220959       13.9903691868       13.5531693190
 Ar        15.9157441868        7.7932109234        7.5665680838
 Ar        16.0934590799        9.4294670135       10.8315666018
 Ar        12.8319051500       14.6212824599        8.2728359283
 Ar        11.8301682445       12.4839056177        5.2054418906
 Ar        10.3048619879       15.5720413816       10.9023510406
 Ar         9.2419958014       13.5952558953        7.9267690026
 Ar        14.1272070733       11.1587882849        7.9369780037
 Ar         7.3491089224       10.3438253375       15.4984567577
 Ar         9.5212474976        6.0896757514        6.7283029176
 Ar         4.3934742625        9.4847429334        9.7357146327
 Ar        12.2644057173        8.0616633372       15.9143730533
 Ar        14.7130445875        5.3464377176       10.4114849460
 Ar         6.5058648883        8.1548308206       12.5138749786
 Ar         5.9049809580        5.9937849635        9.3804863784
 Ar        10.9868157602        4.2590254526        9.7109975184
 Ar        11.6817959518        6.3136304863       12.6799363056
 Ar         8.7997089205        6.8299371846       15.2322615847
 Ar        11.4333738388       11.9199679113       10.5280575861
 Ar        13.4684799805       10.3802061115       13.2300911387
 Ar        10.3608794963       10.0495640751        7.5186390568
 Ar        12.7030849450        8.3176083051        9.7345779118
 Ar         7.8568750035       10.9361924650       10.1790950664
 Ar         9.9551835891        9.5300590001       12.9520397560
 Ar         9.1762013165        7.5467773351       10.0133868463
      38
 i =      40, E =       -0.0604841253
 Ar        15.1781494249        7.1291467760       13.5711931689
 Ar         5.2523861764       11.7245970246       12.6799878778
 Ar         6.9933721839        8.8263372639        7.0870583485
 Ar        12.9354893371        5.6647506262        7.0490348154
 Ar        10.9386948602       11.5357978625       15.9398776611
 Ar         8.1587008868        4.7122244039       12.1824038573
 Ar         5.6185796306       12.3500911147        7.5866945070
 Ar        13.1240681740        8.8745727283        5.2679968091
 Ar         8.8036140273       12.9949859133       13.1755783633
 Ar        15.0061081309       13.1311913297       11.0291677101
 Ar         9.6257450620        8.4868484914        4.1571610185
 Ar         8.1480953639       11.7578003307        4.9080031696
 Ar         6.6548947805       14.4925174229       10.4954682794
 Ar        12.4084397663       14.0356777147       13.5670371014
 Ar        15.8641152045        7.7964713647        7.6136766160
 Ar        16.1520675731        9.5241617482       10.8330042707
 Ar        12.8352250338       14.6595318905        8.2876545593
 Ar        11.8609679549       12.5272312010        5.2318920805
 Ar        10.2831767987       15.5857679687       10.9007375769
 Ar         9.2589979976       13.5815781502        7.9191057933
 Ar        14.1356394820       11.1884331491        7.9663648235
 Ar         7.3793049689       10.3240680126       15.4845298044
 Ar         9.2807857334        5.8920782016        6.7517168434
 Ar         4.4086164685        9.4969578838        9.7255021830
 Ar        12.2773744623        8.0557709876       15.8633922783
 Ar        14.6303210904        5.2923497194       10.3618441414
 Ar         6.5380752305        8.1544668485       12.4924524520
 Ar         5.9053012263        5.9999282502        9.3735299341
 Ar        10.9259994766        4.1610669173        9.7087211660
 Ar        11.6465567048        6.2338804670       12.6723235121
 Ar         8.8078135597        6.8122678269       15.2173300692
 Ar        11.4436872052       11.9570754841       10.5426408190
 Ar        13.5043824624       10.4425474948       13.2452803634
 Ar        10.4216678468       10.0328775313        7.5341443940
 Ar        12.7335165729        8.3972997212        9.8779652255
 Ar         7.8847703639       10.9162524655       10.1734703083
 Ar        10.0032962376        9.5089263337       12.9333138114
 Ar         9.2137775406        7.5128233794        9.9902782867
      38
 i =      40, E =       -0.0608128447
 Ar        15.1422158627        7.1479184621       13.4597260880
 Ar         5.2689335447       11.7097288266       12.6800279326
 Ar         7.0324981838        8.8185411568        7.1010921729
 Ar        12.7089509950        5.8914145752        7.1104394982
 Ar        10.9550128358       11.5338271981       15.9314503579
 Ar         8.1244880829        4.6943759369       12.1695364383
 Ar         5.6619069664       12.3320160671        7.5488943181
 Ar        13.1943239114        8.9788968383        5.1987492300
 Ar         8.8137301512       12.9787202995       13.1688543645
 Ar        15.0077251802       13.1973514163       11.0430940827
 Ar         9.6724512487        8.3550841466        4.2604888508
 Ar         8.2235909712       11.6884459322        4.8970287407
 Ar         6.6558764928       14.4629269242       10.4798380531
 Ar        12.3965133571       14.0805631881       13.5809535102
 Ar        15.8018171476        7.7961936263        7.6597742935
 Ar        16.2071063058        9.6158036560       10.8316120872
 Ar        12.8383244180       14.6974727340        8.3026814059
 Ar        11.8918879255       12.5715059965        5.2570337427
 Ar        10.2613823414       15.5994610869       10.8991674491
 Ar         9.2761192631       13.5680312842        7.9115295726
 Ar        14.1422720832       11.2145734282        7.9952002091
 Ar         7.4091957655       10.3042740879       15.4707865542
 Ar         9.0595131215        5.7076676608        6.7803582922
 Ar         4.4246005575        9.5094403164        9.7143573034
 Ar        12.2911307982        8.0491047762       15.8118488119
 Ar        14.5413527975        5.2428172313       10.3039984459
 Ar         6.5720817073        8.1532206393       12.4696342056
 Ar         5.9017450154        6.0057625788        9.3693057443
 Ar        10.8708907399        4.0675401317        9.6971967688
 Ar        11.6134944987        6.1579473563       12.6606888926
 Ar         8.8161537259        6.7944308667       15.2023569406
 Ar        11.4545377918       11.9942267155       10.5581182824
 Ar        13.5408411478       10.5054839378       13.2644181602
 Ar        10.4868537339       10.0199016084        7.5527284483
 Ar        12.7629105055        8.4665933822       10.0147114556
 Ar         7.9141829743       10.8959052611       10.1674221068
 Ar        10.0500820551        9.4878904195       12.9133193978
 Ar         9.2550807955        7.4752922501        9.9591117916
      38
 i =      40, E =       -0.0613056318
 Ar        15.1046404020        7.1687662613       13.3440753251
 Ar         5.2859232224       11.6941269750       12.6803443291
 Ar         7.0749453150        8.8031472323        7.1151729614
 Ar        12.4648154969        6.1320752106        7.1864622668
 Ar        10.9716207860       11.5317660301       15.9233448573
 Ar         8.0919938429        4.6755149470       12.1546046649
 Ar         5.7068760563       12.3120753040        7.5092676020
 Ar        13.2550595413        9.0668132342        5.1413115900
 Ar         8.8236534529       12.9634359043       13.1631547282
 Ar        15.0094567017       13.2643236455       11.0576536695
 Ar         9.7275595792        8.2198084746        4.3712493382
 Ar         8.3027457007       11.6146201259        4.8862520800
 Ar         6.6568984117       14.4320179549       10.4632510381
 Ar        12.3837499372       14.1261821360       13.5951683093
 Ar        15.7267424368        7.7943068850        7.7053689568
 Ar        16.2588562088        9.7051179529       10.8283831052
 Ar        12.8411480889       14.7366225360        8.3184532348
 Ar        11.9239050063       12.6156634099        5.2819335911
 Ar        10.2388152143       15.6132532305       10.8975557143
 Ar         9.2944696772       13.5533263129        7.9039931616
 Ar        14.1488187675       11.2402254516        8.0238534209
 Ar         7.4392108529       10.2839885698       15.4574070995
 Ar         8.8625581083        5.5411187264        6.8106277712
 Ar         4.4420225683        9.5228713186        9.7021854677
 Ar        12.3064338141        8.0416112726       15.7591010989
 Ar        14.4452874379        5.1984430825       10.2380295240
 Ar         6.6077389075        8.1511583617       12.4459753053
 Ar         5.8910110614        6.0122672876        9.3704900766
 Ar        10.8193533241        3.9820949398        9.6747943943
 Ar        11.5823544298        6.0859205263       12.6455015938
 Ar         8.8250897845        6.7757231516       15.1869909658
 Ar        11.4666608620       12.0303577175       10.5741341641
 Ar        13.5788230331       10.5699325124       13.2880128413
 Ar        10.5529106697       10.0074011017        7.5735245362
 Ar        12.7915185526        8.5255989524       10.1408666853
 Ar         7.9452869035       10.8755482942       10.1609199893
 Ar        10.0947728342        9.4681303898       12.8942810001
 Ar         9.2980480099        7.4349965808        9.9238375421
      38
 i =      40, E =       -0.0618487420
 Ar        15.0672293261        7.1910496829       13.2217763680
 Ar         5.3039226795       11.6768068642       12.6811981295
 Ar         7.1214517928        8.7792758581        7.1301261385
 Ar        12.2155336676        6.3650805477        7.2685881589
 Ar        10.9898608904       11.5297201432       15.9150741619
 Ar         8.0575459335        4.6535709080       12.1377841825
 Ar         5.7567657529       12.2887134374        7.4641070911
 Ar        13.3053478215        9.1420384379        5.0968967819
 Ar         8.8338588244       12.9482858979       13.1570529739
 Ar        15.0115755933       13.3376401000       11.0743106551
 Ar         9.7881554020        8.0774775049        4.4899322956
 Ar         8.3911409365       11.5328996862        4.8763067969
 Ar         6.6576829716       14.3974796337       10.4442626439
 Ar        12.3690847350       14.1758846497       13.6107530059
 Ar        15.6364545908        7.7952046845        7.7534257549
 Ar        16.3099526743        9.7980648363       10.8246343677
 Ar        12.8436375553       14.7804163034        8.3363461162
 Ar        11.9598101584       12.6631578948        5.3078641206
 Ar        10.2137686365       15.6283095850       10.8959121778
 Ar         9.3147695625       13.5392284496        7.8964424701
 Ar        14.1570973160       11.2702253865        8.0542082714
 Ar         7.4715234778       10.2618368854       15.4444975475
 Ar         8.6828440689        5.3832762795        6.8419142169
 Ar         4.4624297953        9.5388039357        9.6881922067
 Ar        12.3250417198        8.0327725319       15.7015773918
 Ar        14.3359728625        5.1575719689       10.1624665143
 Ar         6.6450425011        8.1486555321       12.4224426442
 Ar         5.8697147851        6.0209170650        9.3789358941
 Ar        10.7639381744        3.9018320860        9.6411410039
 Ar        11.5516107708        6.0144194548       12.6262764111
 Ar         8.8353770745        6.7545044088       15.1701614725
 Ar        11.4814984263       12.0674210070       10.5922419922
 Ar        13.6217269008       10.6389634019       13.3165796825
 Ar        10.6169037533       10.0030590623        7.5981590530
 Ar        12.8189247630        8.5775478229       10.2545464816
 Ar         7.9793716858       10.8552827774       10.1538164740
 Ar        10.1379176577        9.4500038718       12.8777434259
 Ar         9.3372897620        7.3929534171        9.8898389257
      38
 i =      40, E =       -0.0621047902
 Ar        15.0390864315        7.2111078278       13.0901586479
 Ar         5.3250224291       11.6552529372       12.6849520915
 Ar         7.1742756525        8.7433783603        7.1480501740
 Ar        12.0115002289        6.5311509785        7.3500871996
 Ar        11.0121892042       11.5281133662       15.9070330572
 Ar         8.0126451421        4.6232951710       12.1189137516
 Ar         5.8188204790       12.2588038702        7.4075832553
 Ar        13.3404801466        9.2155286072        5.0622865402
 Ar         8.8467321721       12.9335828858       13.1529736538
 Ar        15.0138689276       13.4290978083       11.0962717982
 Ar         9.8337952534        7.9285654714        4.5989395435
 Ar         8.4992714269       11.4373435038        4.8624292502
 Ar         6.6563018191       14.3545344132       10.4198687354
 Ar        12.3503697604       14.2371267266       13.6297914322
 Ar        15.5322540661        7.8056958714        7.8089858927
 Ar        16.3673089606        9.9069563409       10.8243007120
 Ar        12.8463998153       14.8382040489        8.3594347018
 Ar        12.0058661147       12.7241042985        5.3366044467
 Ar        10.1825862255       15.6470140926       10.8941197181
 Ar         9.3386676220       13.5288308707        7.8869178111
 Ar        14.1721015398       11.3133449820        8.0893565276
 Ar         7.5093384959       10.2343864035       15.4309428877
 Ar         8.5017798208        5.2190898649        6.8766140095
 Ar         4.4896354175        9.5609868649        9.6685291922
 Ar        12.3518710195        8.0211845444       15.6311707131
 Ar        14.2057986658        5.1118593094       10.0791543619
 Ar         6.6832690130        8.1452198176       12.4009479400
 Ar         5.8284841229        6.0355214664        9.3980852048
 Ar        10.6876085802        3.8132921808        9.5991600841
 Ar        11.5188746373        5.9367954933       12.6005566691
 Ar         8.8479872050        6.7251776030       15.1493082415
 Ar        11.5018938172       12.1138542333       10.6165009911
 Ar        13.6739479510       10.7191638143       13.3509428454
 Ar        10.6732189469       10.0292888909        7.6298012600
 Ar        12.8375655231        8.6295023498       10.3469934421
 Ar         8.0184045488       10.8374453912       10.1472645697
 Ar        10.1801758690        9.4354859987       12.8650783181
 Ar         9.3523779485        7.3510653415        9.8774243289
