
     Program PWSCF v.6.3MaX starts on 16May2019 at 17:26:16 

     This program is part of the open-source Quantum ESPRESSO suite
     for quantum simulation of materials; please cite
         "P. Giannozzi et al., J. Phys.:Condens. Matter 21 395502 (2009);
         "P. Giannozzi et al., J. Phys.:Condens. Matter 29 465901 (2017);
          URL http://www.quantum-espresso.org", 
     in publications or presentations arising from this work. More details at
     http://www.quantum-espresso.org/quote

     Parallel version (MPI & OpenMP), running on      12 processor cores
     Number of MPI processes:                12
     Threads/MPI process:                     1

     MPI processes distributed on     1 nodes
     R & G space division:  proc/nbgrp/npool/nimage =      12
     Waiting for input...
     Reading input from standard input

     Current dimensions of program PWSCF are:
     Max number of different atomic species (ntypx) = 10
     Max number of k-points (npk) =  40000
     Max angular momentum in pseudopotentials (lmaxx) =  3
     Message from routine read_upf::
     Pseudo file ../pseudo/H.pbe-rrkjus_psl.0.1.UPF has been successfully fixed on the fly.
To avoid this message in the future you can permanently fix 
 your pseudo files following instructions given in: 
https://gitlab.com/QEF/q-e/blob/master/upftools/how_to_fix_upf.md

     Subspace diagonalization in iterative solution of the eigenvalue problem:
     one sub-group per band group will be used
     scalapack distributed-memory algorithm (size of sub-group:  2*  2 procs)

 
     Parallelization info
     --------------------
     sticks:   dense  smooth     PW     G-vecs:    dense   smooth      PW
     Min         488     245     70                45526    16099    2474
     Max         489     246     71                45529    16103    2480
     Sum        5859    2943    841               546337   193213   29729
 


     bravais-lattice index     =            8
     lattice parameter (alat)  =       8.1256  a.u.
     unit-cell volume          =    8705.1007 (a.u.)^3
     number of atoms/cell      =           18
     number of atomic types    =            2
     number of electrons       =        60.00
     number of Kohn-Sham states=           36
     kinetic-energy cutoff     =      30.0000  Ry
     charge density cutoff     =     240.0000  Ry
     convergence threshold     =      1.0E-08
     mixing beta               =       0.2500
     number of iterations used =            8  plain     mixing
     Exchange-correlation      = PBE ( 1  4  3  4 0 0)

     celldm(1)=   8.125588  celldm(2)=   4.651297  celldm(3)=   3.488473
     celldm(4)=   0.000000  celldm(5)=   0.000000  celldm(6)=   0.000000

     crystal axes: (cart. coord. in units of alat)
               a(1) = (   1.000000   0.000000   0.000000 )  
               a(2) = (   0.000000   4.651297   0.000000 )  
               a(3) = (   0.000000   0.000000   3.488473 )  

     reciprocal axes: (cart. coord. in units 2 pi/alat)
               b(1) = (  1.000000  0.000000  0.000000 )  
               b(2) = (  0.000000  0.214994  0.000000 )  
               b(3) = (  0.000000  0.000000  0.286658 )  


     PseudoPot. # 1 for C  read from file:
     ../pseudo/C_pbe_v1.2.uspp.F.UPF
     MD5 check sum: d1aef80898a10debaa0f26306b886e00
     Pseudo is Ultrasoft + core correction, Zval =  4.0
     Generated by new atomic code, or converted to UPF format
     Using radial grid of  721 points,  4 beta functions with: 
                l(1) =   0
                l(2) =   0
                l(3) =   1
                l(4) =   1
     Q(r) pseudized with  8 coefficients,  rinner =    1.100   1.100   1.100


     PseudoPot. # 2 for H  read from file:
     ../pseudo/H.pbe-rrkjus_psl.0.1.UPF
     MD5 check sum: 36633979392af7100e6f6632747262d3
     Pseudo is Ultrasoft, Zval =  1.0
     Generated using "atomic" code by A. Dal Corso v.5.0.99 svn rev. 10869
     Using radial grid of  929 points,  2 beta functions with: 
                l(1) =   0
                l(2) =   0
     Q(r) pseudized with 0 coefficients 


     atomic species   valence    mass     pseudopotential
        C              4.00    12.01070     C ( 1.00)
        H              1.00     1.00794     H ( 1.00)

      4 Sym. Ops. (no inversion) found



   Cartesian axes

     site n.     atom                  positions (alat units)
         1           C   tau(   1) = (   0.3406392   1.9866609   1.7442363  )
         2           C   tau(   2) = (   0.6593608   1.9866609   1.7442363  )
         3           C   tau(   3) = (   0.1675068   2.2670657   1.7442363  )
         4           C   tau(   4) = (   0.3330752   2.5529775   1.7442363  )
         5           C   tau(   5) = (   0.6669248   2.5529775   1.7442363  )
         6           C   tau(   6) = (   0.8324932   2.2670657   1.7442363  )
         7           C   tau(   7) = (   0.8346651   2.8405148   1.7442363  )
         8           C   tau(   8) = (   0.6669248   3.1280522   1.7442363  )
         9           C   tau(   9) = (   0.3330752   3.1280522   1.7442363  )
        10           C   tau(  10) = (   0.1653349   2.8405148   1.7442363  )
        11           C   tau(  11) = (   0.1675068   3.4139640   1.7442363  )
        12           C   tau(  12) = (   0.3406392   3.6943687   1.7442363  )
        13           C   tau(  13) = (   0.6593608   3.6943687   1.7442363  )
        14           C   tau(  14) = (   0.8324932   3.4139640   1.7442363  )
        15           H   tau(  15) = (   0.2210777   3.9172489   1.7442363  )
        16           H   tau(  16) = (   0.7789223   3.9172489   1.7442363  )
        17           H   tau(  17) = (   0.2210777   1.7637807   1.7442363  )
        18           H   tau(  18) = (   0.7789223   1.7637807   1.7442363  )

     number of k points=    11  gaussian smearing, width (Ry)=  0.0010
                       cart. coord. in units 2pi/alat
        k(    1) = (   0.0000000   0.0000000   0.0000000), wk =   0.1000000
        k(    2) = (   0.0500000   0.0000000   0.0000000), wk =   0.2000000
        k(    3) = (   0.1000000   0.0000000   0.0000000), wk =   0.2000000
        k(    4) = (   0.1500000   0.0000000   0.0000000), wk =   0.2000000
        k(    5) = (   0.2000000   0.0000000   0.0000000), wk =   0.2000000
        k(    6) = (   0.2500000   0.0000000   0.0000000), wk =   0.2000000
        k(    7) = (   0.3000000   0.0000000   0.0000000), wk =   0.2000000
        k(    8) = (   0.3500000   0.0000000   0.0000000), wk =   0.2000000
        k(    9) = (   0.4000000   0.0000000   0.0000000), wk =   0.2000000
        k(   10) = (   0.4500000   0.0000000   0.0000000), wk =   0.2000000
        k(   11) = (  -0.5000000   0.0000000   0.0000000), wk =   0.1000000

     Dense  grid:   546337 G-vectors     FFT dimensions: (  45, 192, 144)

     Smooth grid:   193213 G-vectors     FFT dimensions: (  30, 135, 100)

     Estimated max dynamical RAM per process >      84.68 MB

     Estimated total dynamical RAM >    1016.14 MB

     Initial potential from superposition of free atoms
     Check: negative starting charge=   -0.002754

     starting charge   59.99939, renormalised to   60.00000

     negative rho (up, down):  2.754E-03 0.000E+00
     Starting wfcs are   60 randomized atomic wfcs

     total cpu time spent up to now is        2.0 secs

     Self-consistent Calculation

     iteration #  1     ecut=    30.00 Ry     beta= 0.25
     Davidson diagonalization with overlap
     ethr =  1.00E-02,  avg # of iterations =  2.0

     negative rho (up, down):  1.749E-03 0.000E+00

     total cpu time spent up to now is        4.2 secs

     total energy              =    -165.73118745 Ry
     Harris-Foulkes estimate   =    -166.31561627 Ry
     estimated scf accuracy    <       1.93080362 Ry

     iteration #  2     ecut=    30.00 Ry     beta= 0.25
     Davidson diagonalization with overlap
     ethr =  3.22E-03,  avg # of iterations =  1.2

     negative rho (up, down):  2.174E-03 0.000E+00

     total cpu time spent up to now is        5.9 secs

     total energy              =    -165.38221327 Ry
     Harris-Foulkes estimate   =    -165.78882528 Ry
     estimated scf accuracy    <       0.73576147 Ry

     iteration #  3     ecut=    30.00 Ry     beta= 0.25
     Davidson diagonalization with overlap
     ethr =  1.23E-03,  avg # of iterations =  5.9

     negative rho (up, down):  1.592E-03 0.000E+00

     total cpu time spent up to now is        8.6 secs

     total energy              =    -165.49703461 Ry
     Harris-Foulkes estimate   =    -165.51585701 Ry
     estimated scf accuracy    <       0.05703022 Ry

     iteration #  4     ecut=    30.00 Ry     beta= 0.25
     Davidson diagonalization with overlap
     c_bands:  1 eigenvalues not converged
     c_bands:  2 eigenvalues not converged
     ethr =  9.51E-05,  avg # of iterations = 11.2

     negative rho (up, down):  2.190E-03 0.000E+00

     total cpu time spent up to now is       11.6 secs

     total energy              =    -165.49791037 Ry
     Harris-Foulkes estimate   =    -165.50309740 Ry
     estimated scf accuracy    <       0.01611716 Ry

     iteration #  5     ecut=    30.00 Ry     beta= 0.25
     Davidson diagonalization with overlap
     ethr =  2.69E-05,  avg # of iterations =  5.4

     negative rho (up, down):  1.566E-03 0.000E+00

     total cpu time spent up to now is       14.4 secs

     total energy              =    -165.49928695 Ry
     Harris-Foulkes estimate   =    -165.49980328 Ry
     estimated scf accuracy    <       0.00140916 Ry

     iteration #  6     ecut=    30.00 Ry     beta= 0.25
     Davidson diagonalization with overlap
     ethr =  2.35E-06,  avg # of iterations =  5.6

     negative rho (up, down):  1.397E-03 0.000E+00

     total cpu time spent up to now is       16.8 secs

     total energy              =    -165.49949844 Ry
     Harris-Foulkes estimate   =    -165.49949233 Ry
     estimated scf accuracy    <       0.00030604 Ry

     iteration #  7     ecut=    30.00 Ry     beta= 0.25
     Davidson diagonalization with overlap
     ethr =  5.10E-07,  avg # of iterations =  1.1

     negative rho (up, down):  1.192E-03 0.000E+00

     total cpu time spent up to now is       18.5 secs

     total energy              =    -165.49949758 Ry
     Harris-Foulkes estimate   =    -165.49951101 Ry
     estimated scf accuracy    <       0.00002718 Ry

     iteration #  8     ecut=    30.00 Ry     beta= 0.25
     Davidson diagonalization with overlap
     ethr =  4.53E-08,  avg # of iterations =  2.0

     negative rho (up, down):  1.075E-03 0.000E+00

     total cpu time spent up to now is       20.7 secs

     total energy              =    -165.49950252 Ry
     Harris-Foulkes estimate   =    -165.49951227 Ry
     estimated scf accuracy    <       0.00002014 Ry

     iteration #  9     ecut=    30.00 Ry     beta= 0.25
     Davidson diagonalization with overlap
     ethr =  3.36E-08,  avg # of iterations =  2.0

     negative rho (up, down):  1.037E-03 0.000E+00

     total cpu time spent up to now is       22.6 secs

     total energy              =    -165.49950647 Ry
     Harris-Foulkes estimate   =    -165.49950596 Ry
     estimated scf accuracy    <       0.00000069 Ry

     iteration # 10     ecut=    30.00 Ry     beta= 0.25
     Davidson diagonalization with overlap
     ethr =  1.15E-09,  avg # of iterations =  2.3

     negative rho (up, down):  1.037E-03 0.000E+00

     total cpu time spent up to now is       24.7 secs

     total energy              =    -165.49950703 Ry
     Harris-Foulkes estimate   =    -165.49950659 Ry
     estimated scf accuracy    <       0.00000007 Ry

     iteration # 11     ecut=    30.00 Ry     beta= 0.25
     Davidson diagonalization with overlap
     ethr =  1.14E-10,  avg # of iterations =  2.6

     negative rho (up, down):  1.054E-03 0.000E+00

     total cpu time spent up to now is       26.9 secs

     total energy              =    -165.49950734 Ry
     Harris-Foulkes estimate   =    -165.49950705 Ry
     estimated scf accuracy    <       0.00000004 Ry

     iteration # 12     ecut=    30.00 Ry     beta= 0.25
     Davidson diagonalization with overlap
     ethr =  6.46E-11,  avg # of iterations =  2.1

     negative rho (up, down):  1.180E-03 0.000E+00

     total cpu time spent up to now is       29.0 secs

     End of self-consistent calculation

          k = 0.0000 0.0000 0.0000 ( 24103 PWs)   bands (ev):

   -21.9342 -21.0900 -19.7111 -17.9686 -16.8343 -16.1937 -16.0778 -15.7091
   -15.2940 -14.7811 -13.1058 -12.7846 -12.7408 -11.2034 -11.1959 -11.1075
   -10.0265  -9.6071  -9.3595  -9.1475  -9.0732  -7.6569  -7.5556  -7.3055
    -6.3814  -6.1248  -5.6322  -4.8347  -3.7998  -3.6184  -2.0474  -1.9681
    -1.2815   0.1739   0.2470   0.4385

          k = 0.0500 0.0000 0.0000 ( 24107 PWs)   bands (ev):

   -21.9197 -21.0758 -19.6978 -17.9588 -17.0434 -16.2919 -16.1997 -15.4964
   -15.0794 -14.8340 -13.2345 -12.7057 -12.6403 -11.3483 -11.1171 -11.0067
   -10.0092  -9.6081  -9.3074  -9.1915  -9.0565  -7.6400  -7.5407  -7.3523
    -6.4113  -6.1572  -5.6251  -4.9329  -3.9350  -3.6787  -1.9997  -1.8281
    -1.1648   0.1412   0.2664   0.4580

          k = 0.1000 0.0000 0.0000 ( 24098 PWs)   bands (ev):

   -21.8763 -21.0334 -19.6581 -17.9307 -17.4474 -16.6799 -16.2636 -15.0568
   -14.9358 -14.6949 -13.4904 -12.5601 -12.3771 -11.5894 -10.8984 -10.8928
    -9.9574  -9.6369  -9.2807  -9.1737  -9.0063  -7.6070  -7.4961  -7.4851
    -6.5054  -6.2519  -5.6043  -5.1942  -4.2577  -3.8416  -1.8727  -1.4912
    -0.8484   0.0484   0.3248   0.5163

          k = 0.1500 0.0000 0.0000 ( 24136 PWs)   bands (ev):

   -21.8040 -20.9627 -19.5925 -17.8914 -17.8844 -17.0832 -16.4027 -15.0553
   -14.5039 -14.3277 -13.7593 -12.3692 -12.0386 -11.8478 -10.7908 -10.5936
    -9.8713  -9.7671  -9.3073  -9.0046  -8.9228  -7.6865  -7.5939  -7.4223
    -6.6724  -6.4016  -5.5724  -5.5546  -4.6572  -4.0728  -1.6955  -1.0677
    -0.3974  -0.0905   0.4222   0.6130

          k = 0.2000 0.0000 0.0000 ( 24106 PWs)   bands (ev):

   -21.7029 -20.8641 -19.5026 -18.3150 -17.8777 -17.4362 -16.6148 -15.0898
   -14.2614 -13.9397 -13.7666 -12.1946 -12.1149 -11.5797 -10.6698 -10.2774
    -9.9832  -9.7509  -9.2464  -8.8435  -8.8062  -7.9363  -7.6324  -7.3201
    -6.9156  -6.5957  -5.9624  -5.5378  -5.0738  -4.3443  -1.4884  -0.6155
    -0.2544   0.1340   0.5584   0.7477

          k = 0.2500 0.0000 0.0000 ( 24124 PWs)   bands (ev):

   -21.5732 -20.7378 -19.3941 -18.7224 -18.0493 -17.5721 -16.8786 -15.0598
   -14.5244 -13.4816 -13.3603 -12.4945 -11.7905 -11.1456 -10.5287 -10.2873
    -9.9119  -9.5967  -9.1365  -8.7284  -8.6570  -8.2127  -7.7421  -7.2295
    -7.1916  -6.8235  -6.3849  -5.5981  -5.3900  -4.6378  -1.2607  -0.4553
    -0.1283   0.7097   0.7330   0.9204

          k = 0.3000 0.0000 0.0000 ( 24162 PWs)   bands (ev):

   -21.4150 -20.5844 -19.3191 -19.0510 -18.3798 -17.5170 -17.1673 -14.9799
   -14.8110 -13.1978 -12.8946 -12.6659 -11.4168 -10.7086 -10.5357 -10.3645
    -9.6186  -9.4091  -8.9947  -8.7268  -8.4757  -8.4602  -7.9305  -7.5987
    -7.0738  -7.0517  -6.7900  -5.9626  -5.3895  -4.9408  -1.0162  -0.6249
     0.3319   0.9453   1.1304   1.2896

          k = 0.3500 0.0000 0.0000 ( 24196 PWs)   bands (ev):

   -21.2287 -20.4051 -19.5536 -19.0244 -18.7234 -17.4595 -17.4211 -15.0716
   -14.8671 -13.1075 -12.9440 -12.1381 -11.1243 -10.6540 -10.3072 -10.1648
    -9.3624  -9.1885  -8.9582  -8.8290  -8.5669  -8.2632  -8.1938  -7.9975
    -7.3357  -7.2445  -6.8246  -6.3568  -5.3450  -5.2439  -0.7795  -0.7559
     0.7914   1.1072   1.1947   1.3773

          k = 0.4000 0.0000 0.0000 ( 24218 PWs)   bands (ev):

   -21.0146 -20.2026 -19.8863 -19.0487 -18.8577 -17.7385 -17.3244 -15.2847
   -14.7400 -13.3497 -12.7226 -11.5549 -11.2072 -10.3464 -10.0714  -9.8501
    -9.2768  -9.1744  -8.9358  -8.6627  -8.6478  -8.5119  -8.3884  -8.0211
    -7.6280  -7.5975  -6.7337  -6.6273  -5.5386  -5.3045  -0.9012  -0.4812
     0.7837   1.2435   1.4800   1.6583

          k = 0.4500 0.0000 0.0000 ( 24214 PWs)   bands (ev):

   -20.7738 -20.2037 -19.9875 -19.3388 -18.6804 -17.9800 -17.2510 -15.4280
   -14.6281 -13.5321 -12.5523 -11.3728 -10.9962 -10.0779  -9.8967  -9.5559
    -9.4524  -9.1399  -8.8159  -8.8070  -8.7150  -8.6522  -8.4483  -7.9948
    -7.8395  -7.7545  -7.0825  -6.4098  -5.8124  -5.2771  -0.9790  -0.1968
     0.4660   1.6857   1.7976   1.9680

          k =-0.5000 0.0000 0.0000 ( 24218 PWs)   bands (ev):

   -20.5422 -20.4613 -19.8458 -19.5057 -18.5814 -18.1004 -17.2231 -15.4792
   -14.5800 -13.6039 -12.4827 -11.4455 -10.5905 -10.3365  -9.4993  -9.4579
    -9.4490  -9.3341  -8.9087  -8.8774  -8.8684  -8.3589  -8.3294  -8.3162
    -7.9759  -7.5404  -7.3242  -6.2582  -5.9829  -5.2674  -1.0057   0.0205
     0.2371   2.0503   2.0764   2.2111

     the Fermi energy is    -2.2991 ev

!    total energy              =    -165.49950821 Ry
     Harris-Foulkes estimate   =    -165.49950735 Ry
     estimated scf accuracy    <          7.8E-09 Ry

     The total energy is the sum of the following terms:

     one-electron contribution =   -1270.40458455 Ry
     hartree contribution      =     643.33353586 Ry
     xc contribution           =     -53.57955719 Ry
     ewald contribution        =     515.15109766 Ry
     smearing contrib. (-TS)   =      -0.00000000 Ry

     convergence has been achieved in  12 iterations

     Writing output data file 7agnr_1uc.save/
 
     init_run     :      1.53s CPU      1.64s WALL (       1 calls)
     electrons    :     25.48s CPU     27.18s WALL (       1 calls)

     Called by init_run:
     wfcinit      :      0.88s CPU      0.92s WALL (       1 calls)
     potinit      :      0.24s CPU      0.25s WALL (       1 calls)
     hinit0       :      0.23s CPU      0.26s WALL (       1 calls)

     Called by electrons:
     c_bands      :     20.24s CPU     21.06s WALL (      12 calls)
     sum_band     :      3.59s CPU      3.99s WALL (      12 calls)
     v_of_rho     :      0.94s CPU      0.96s WALL (      13 calls)
     newd         :      0.55s CPU      0.87s WALL (      13 calls)
     mix_rho      :      0.18s CPU      0.19s WALL (      12 calls)

     Called by c_bands:
     init_us_2    :      0.50s CPU      0.52s WALL (     275 calls)
     cegterg      :     19.02s CPU     19.28s WALL (     132 calls)

     Called by sum_band:
     sum_band:bec :      0.00s CPU      0.01s WALL (     132 calls)
     addusdens    :      0.48s CPU      0.81s WALL (      12 calls)

     Called by *egterg:
     h_psi        :     13.64s CPU     13.92s WALL (     620 calls)
     s_psi        :      1.21s CPU      1.16s WALL (     620 calls)
     g_psi        :      0.17s CPU      0.14s WALL (     477 calls)
     cdiaghg      :      1.65s CPU      1.69s WALL (     609 calls)

     Called by h_psi:
     h_psi:pot    :     13.47s CPU     13.77s WALL (     620 calls)
     h_psi:calbec :      1.18s CPU      1.15s WALL (     620 calls)
     vloc_psi     :     11.10s CPU     11.30s WALL (     620 calls)
     add_vuspsi   :      1.18s CPU      1.31s WALL (     620 calls)

     General routines
     calbec       :      1.47s CPU      1.45s WALL (     752 calls)
     fft          :      0.82s CPU      0.87s WALL (     168 calls)
     ffts         :      0.04s CPU      0.03s WALL (      25 calls)
     fftw         :     11.59s CPU     11.92s WALL (   30986 calls)
     interpolate  :      0.08s CPU      0.09s WALL (      13 calls)
 
     Parallel routines
     fft_scatt_xy :      2.16s CPU      2.16s WALL (   31179 calls)
     fft_scatt_yz :      3.80s CPU      3.90s WALL (   31179 calls)
 
     PWSCF        :    27.21s CPU        29.93s WALL

 
   This run was terminated on:  17:26:46  16May2019            

=------------------------------------------------------------------------------=
   JOB DONE.
=------------------------------------------------------------------------------=
